<?xml version="1.0" standalone="no"?>
<!DOCTYPE svg PUBLIC "-//W3C//DTD SVG 1.1//EN" "http://www.w3.org/Graphics/SVG/1.1/DTD/svg11.dtd">
<svg xmlns="http://www.w3.org/2000/svg">
<defs >
<font id="Nunito" horiz-adv-x="563" ><font-face
    font-family="Nunito SemiBold"
    units-per-em="1000"
    panose-1="0 0 7 0 0 0 0 0 0 0"
    ascent="1011"
    descent="-353"
    alphabetic="0" />
<glyph unicode=" " glyph-name="space" horiz-adv-x="264" />
<glyph unicode="!" glyph-name="exclam" horiz-adv-x="238" d="M107 190T98 199T88 223L58 647Q55 675 72 692T119 710Q147 710 164 693T179 647L149 223Q148 207 140 199T119 190Q107 190 98 199ZM92 -5T74 13T55 59Q55 87 73 105T119 124Q146 124 164 106T182
59Q182 31 164 13T119 -5Q92 -5 74 13Z" />
<glyph unicode="&quot;" glyph-name="quotedbl" horiz-adv-x="435" d="M87 417T82 450L61 641Q60 646 60 654Q60 680 75 695T116 710Q141 710 155 696T170 656Q170 646 169 641L150 450Q144 417 116 417Q87 417 82 450ZM291 417T286 450L265 641Q264 646 264 654Q264
680 279 695T320 710Q345 710 359 696T374 656Q374 646 373 641L354 450Q348 417 320 417Q291 417 286 450Z" />
<glyph unicode="#" glyph-name="numbersign" horiz-adv-x="600" d="M470 467L427 246H514Q530 246 540 236T550 210Q550 196 540 187T514 177H413L383 22Q381 10 372 3T349 -5Q333 -5 323 5T312 31Q312 37 313 41L340 177H195L164 22Q162 10 153 3T130 -5Q114
-5 104 5T94 31Q94 37 95 41L122 177H66Q50 177 40 187T30 213Q30 227 40 236T66 246H135L178 467H86Q70 467 60 477T50 503Q50 517 60 526T86 536H192L221 686Q223 698 232 705T255 713Q272 713 282 703T292 676Q292 670 291 667L265 536H410L439 686Q441 698
450 705T473 713Q489 713 499 703T510 677Q510 671 509 667L483 536H534Q550 536 560 526T570 500Q570 486 560 477T534 467H470ZM353 246L396 467H252L208 246H353Z" />
<glyph unicode="$" glyph-name="dollar" horiz-adv-x="600" d="M558 115T502 61T352 -5V-76Q352 -96 341 -108T310 -120Q291 -120 280 -108T268 -76V-7Q208 -2 153 17T58 71Q39 85 39 111Q39 129 48 141T72 154Q86 154 106 141Q202 76 300 76Q374 76 414 106T455
191Q455 224 434 244T380 277T290 303Q215 322 168 341T88 400T54 506Q54 587 112 643T267 711V781Q267 801 278 813T309 825Q328 825 339 813T351 781V711Q402 706 448 687T531 634Q551 618 551 594Q551 577 541 564T517 551Q503 551 483 564Q440 597 401 613T309
629Q240 629 199 597T158 510Q158 473 181 450T238 415T331 388Q404 370 449 352T526 296T558 194Q558 115 502 61Z" />
<glyph unicode="%" glyph-name="percent" horiz-adv-x="937" d="M302 -17T277 -17Q262 -17 251 -6T239 22Q239 36 247 49L621 696Q636 722 661 722Q676 722 687 711T699 683Q699 669 691 656L316 9Q302 -17 277 -17ZM142 283T96 338T50 499Q50 605 96 659T223
714Q305 714 351 660T397 499Q397 392 351 338T223 283Q142 283 96 338ZM267 351T288 386T309 499Q309 575 288 610T223 645Q179 645 159 611T138 499Q138 422 158 387T223 351Q267 351 288 386ZM632 -7T586 47T540 209Q540 315 586 369T714 424Q795 424 841 370T888
209Q888 103 842 48T714 -7Q632 -7 586 47ZM758 61T778 96T799 209Q799 285 778 320T714 356Q670 356 649 321T628 209Q628 132 649 97T714 61Q758 61 778 96Z" />
<glyph unicode="&amp;" glyph-name="ampersand" horiz-adv-x="671" d="M665 50T665 34Q665 17 652 5T622 -8Q605 -8 592 5L504 94Q458 45 400 19T278 -7Q211 -7 158 16T76 81T46 180Q46 245 85 296T205 393Q164 437 144 474T124 553Q124 626 175 669T306 712Q382
712 427 673T472 565Q472 510 440 468T336 382L493 223Q525 289 532 382Q533 403 546 414T577 426Q595 426 607 414T618 379Q609 255 554 162L652 63Q665 50 665 34ZM267 639T243 616T218 553Q218 525 233 500T282 437Q340 473 363 500T387 561Q387 596 365 617T307
639Q267 639 243 616ZM329 72T371 92T447 151L260 338Q198 301 172 266T145 185Q145 132 182 102T283 72Q329 72 371 92Z" />
<glyph unicode="&apos;" glyph-name="quotesingle" horiz-adv-x="231" d="M87 417T82 450L61 641Q60 646 60 654Q60 680 75 695T116 710Q141 710 155 696T170 656Q170 646 169 641L150 450Q144 417 116 417Q87 417 82 450Z" />
<glyph unicode="(" glyph-name="parenleft" horiz-adv-x="332" d="M102 41T102 263Q102 484 209 683Q218 697 230 704T255 712Q270 712 279 704T289 680Q289 669 285 660Q206 469 206 263Q206 58 285 -133Q289 -142 289 -153Q289 -167 279 -176T255 -185Q242 -185
230 -178T209 -156Q102 41 102 263Z" />
<glyph unicode=")" glyph-name="parenright" horiz-adv-x="332" d="M114 -170T102 -177T77 -185Q62 -185 53 -177T43 -153Q43 -142 47 -133Q126 58 126 263Q126 469 47 660Q43 669 43 680Q43 694 53 703T77 712Q90 712 102 705T123 683Q229 486 229 263Q229 39
123 -156Q114 -170 102 -177Z" />
<glyph unicode="*" glyph-name="asterisk" horiz-adv-x="451" d="M407 568T417 557T427 531Q427 516 417 505T389 495L279 500L338 408Q344 398 344 388Q344 373 333 363T306 352Q286 352 276 372L226 469L175 371Q166 352 145 352Q130 352 118 362T106 387Q106
397 113 407L172 500L62 495Q44 494 35 505T25 531Q25 546 34 557T62 567L172 562L113 654Q106 664 106 675Q106 690 117 700T144 710Q165 710 175 690L226 592L276 690Q286 710 306 710Q321 710 332 700T344 674Q344 665 338 654L279 562L389 567Q407 568 417
557Z" />
<glyph unicode="+" glyph-name="plus" horiz-adv-x="600" d="M522 322T533 312T544 285Q544 269 533 259T506 248H337V79Q337 63 327 52T300 41Q284 41 274 52T263 79V248H94Q78 248 67 259T56 285Q56 301 67 311T94 322H263V491Q263 507 273 518T300 529Q316
529 326 518T337 491V322H506Q522 322 533 312Z" />
<glyph unicode="," glyph-name="comma" horiz-adv-x="238" d="M147 124T164 102T182 37Q182 -48 125 -110Q113 -122 99 -122Q86 -122 77 -114T68 -93Q68 -83 77 -72Q105 -43 113 -3Q88 -1 72 16T55 59Q55 87 73 105T117 124Q147 124 164 102Z" />
<glyph unicode="-" glyph-name="hyphen" horiz-adv-x="429" d="M85 226T73 236T61 266Q61 285 73 296T108 307H321Q344 307 356 296T368 266Q368 247 356 237T321 226H108Q85 226 73 236Z" />
<glyph unicode="." glyph-name="period" horiz-adv-x="238" d="M92 -5T74 13T55 59Q55 87 73 105T119 124Q146 124 164 106T182 59Q182 31 164 13T119 -5Q92 -5 74 13Z" />
<glyph unicode="/" glyph-name="slash" horiz-adv-x="296" d="M66 -51T55 -58T31 -66Q14 -66 1 -55T-12 -26Q-12 -19 -9 -10L225 723Q230 739 241 746T265 754Q282 754 295 743T308 714Q308 707 305 698L71 -35Q66 -51 55 -58Z" />
<glyph unicode="0" glyph-name="zero" horiz-adv-x="600" d="M177 -8T113 84T48 352Q48 529 112 621T300 713Q423 713 487 622T552 353Q552 176 488 84T300 -8Q177 -8 113 84ZM377 75T413 142T449 353Q449 497 413 563T300 630Q223 630 187 564T151 353Q151 210
187 143T300 75Q377 75 413 142Z" />
<glyph unicode="1" glyph-name="one" horiz-adv-x="600" d="M520 85T532 74T544 43Q544 0 496 0H162Q113 0 113 43Q113 63 125 74T162 85H277V584L174 519Q164 513 154 513Q137 513 125 528T112 562Q112 585 132 598L286 696Q309 710 330 710Q352 710 366 696T380
658V85H496Q520 85 532 74Z" />
<glyph unicode="2" glyph-name="two" horiz-adv-x="600" d="M527 85T539 74T552 43Q552 0 503 0H117Q95 0 83 12T70 44Q70 67 88 86L323 343Q370 394 391 436T412 519Q412 572 382 600T295 629Q210 629 126 564Q115 557 108 554T92 550Q78 550 68 563T58 594Q58
619 78 634Q120 670 179 691T298 713Q397 713 455 663T514 526Q514 465 488 410T399 287L210 85H503Q527 85 539 74Z" />
<glyph unicode="3" glyph-name="three" horiz-adv-x="600" d="M465 344T498 301T531 191Q531 99 467 46T292 -7Q227 -7 168 14T67 72Q47 88 47 112Q47 130 57 142T81 155Q96 155 115 142Q158 110 199 94T289 77Q431 77 431 198Q431 257 394 286T280 316H225Q206
316 195 328T184 358Q184 374 195 386T225 399H264Q337 399 375 429T414 519Q414 571 383 600T294 629Q210 629 126 564Q107 551 92 551Q78 551 68 563T58 594Q58 618 78 634Q119 671 177 692T298 713Q397 713 455 664T514 531Q514 471 485 427T401 362Q465 344
498 301Z" />
<glyph unicode="4" glyph-name="four" horiz-adv-x="600" d="M578 228T578 187Q578 146 529 146H465V47Q465 22 451 9T414 -5Q392 -5 378 8T364 47V146H83Q61 146 49 158T37 189Q37 209 50 228L369 687Q385 710 414 710Q435 710 450 697T465 658V228H529Q578 228
578 187ZM148 228H364V540L148 228Z" />
<glyph unicode="5" glyph-name="five" horiz-adv-x="600" d="M398 446T448 418T527 339T555 222Q555 155 524 103T438 22T310 -7Q248 -7 189 14T89 72Q69 89 69 112Q69 130 79 142T103 155Q112 155 119 152T137 142Q178 110 219 94T307 77Q377 77 416 114T455
220Q455 285 416 324T310 363Q267 363 233 349T169 303Q154 289 133 289Q116 289 105 299T93 327V656Q93 679 105 692T142 705H486Q509 705 522 694T535 664Q535 644 522 633T486 622H195V400Q250 446 332 446Q398 446 448 418Z" />
<glyph unicode="6" glyph-name="six" horiz-adv-x="599" d="M399 447T449 419T526 339T554 222Q554 156 524 104T442 22T322 -8Q191 -8 121 81T50 337Q50 454 83 538T178 668T325 713Q382 713 439 692T536 634Q556 617 556 594Q556 576 546 564T522 551Q513 551
506 554T488 564Q404 629 328 629Q245 629 199 553T153 339V337Q175 388 224 417T336 447Q399 447 449 419ZM379 76T416 115T454 220Q454 284 417 323T317 363Q254 363 215 324T175 220Q175 155 214 116T317 76Q379 76 416 115Z" />
<glyph unicode="7" glyph-name="seven" horiz-adv-x="600" d="M525 705T536 693T548 662Q548 644 537 624L210 20Q194 -8 166 -8Q147 -8 132 5T116 39Q116 51 124 67L425 620H100Q76 620 64 631T52 662Q52 705 100 705H503Q525 705 536 693Z" />
<glyph unicode="8" glyph-name="eight" horiz-adv-x="600" d="M490 344T524 298T558 188Q558 96 491 45T300 -7Q177 -7 110 44T42 188Q42 253 76 299T173 362Q120 382 90 425T59 525Q59 612 123 662T300 713Q413 713 477 663T541 525Q541 468 511 425T428 362Q490
344 524 298ZM230 630T194 601T158 516Q158 459 194 429T300 399Q370 399 406 429T442 516Q442 571 406 600T300 630Q230 630 194 601ZM459 76T459 195Q459 315 300 315Q141 315 141 195Q141 76 300 76Q459 76 459 195Z" />
<glyph unicode="9" glyph-name="nine" horiz-adv-x="600" d="M409 713T479 624T550 368Q550 251 517 167T422 37T275 -8Q218 -8 161 13T64 71Q44 88 44 111Q44 129 54 141T78 154Q87 154 94 151T112 141Q196 76 272 76Q355 76 401 152T447 366V368Q425 317 376
288T264 258Q201 258 151 286T74 366T46 483Q46 549 76 601T158 683T278 713Q409 713 479 624ZM346 342T385 381T425 485Q425 550 386 589T283 629Q221 629 184 590T146 485Q146 421 183 382T283 342Q346 342 385 381Z" />
<glyph unicode=":" glyph-name="colon" horiz-adv-x="238" d="M92 369T74 387T55 433Q55 461 73 479T119 498Q146 498 164 480T182 433Q182 405 164 387T119 369Q92 369 74 387ZM92 -5T74 13T55 59Q55 87 73 105T119 124Q146 124 164 106T182 59Q182 31 164 13T119
-5Q92 -5 74 13Z" />
<glyph unicode=";" glyph-name="semicolon" horiz-adv-x="238" d="M92 369T74 387T55 433Q55 461 73 479T119 498Q146 498 164 480T182 433Q182 405 164 387T119 369Q92 369 74 387ZM147 124T164 102T182 37Q182 -48 125 -110Q113 -122 99 -122Q86 -122 77 -114T68
-93Q68 -83 77 -72Q105 -43 113 -3Q88 -1 72 16T55 59Q55 87 73 105T117 124Q147 124 164 102Z" />
<glyph unicode="&lt;" glyph-name="less" horiz-adv-x="600" d="M544 111T544 90Q544 74 533 64T505 53Q495 53 482 58L93 230Q76 237 66 251T56 285Q56 304 66 318T93 340L482 512Q495 517 504 517Q521 517 532 507T544 479Q544 458 523 448L147 285L523 121Q544
111 544 90Z" />
<glyph unicode="=" glyph-name="equal" horiz-adv-x="600" d="M84 348T73 359T62 386Q62 401 73 411T100 422H512Q528 422 539 411T550 384Q550 369 539 359T512 348H100Q84 348 73 359ZM84 404T73 415T62 442Q62 457 73 467T100 478H512Q528 478 539 467T550
440Q550 425 539 415T512 404H100Q84 404 73 415Z" />
<glyph unicode="&gt;" glyph-name="greater" horiz-adv-x="600" d="M524 332T534 318T544 285Q544 266 534 252T507 230L118 58Q105 53 95 53Q78 53 67 63T56 90Q56 111 77 121L453 285L77 448Q56 458 56 479Q56 496 67 506T96 517Q105 517 118 512L507 340Q524
332 534 318Z" />
<glyph unicode="?" glyph-name="question" horiz-adv-x="450" d="M199 190T191 200T182 227Q182 286 203 327T264 417Q296 455 311 483T327 546Q327 584 299 606T224 628Q182 628 146 612T64 562Q44 550 31 550Q16 550 7 562T-3 593Q-3 617 16 633Q58 670 115
691T230 713Q288 713 333 693T404 637T430 553Q430 516 418 486T387 432T336 373Q295 329 273 295T245 218Q243 205 235 198T213 190Q199 190 191 200ZM186 -5T168 13T150 59Q150 87 168 105T214 124Q241 124 259 106T277 59Q277 31 259 13T214 -5Q186 -5 168 13Z"
/>
<glyph unicode="@" glyph-name="at" horiz-adv-x="930" d="M345 -154T248 -101T99 48T46 270Q46 404 102 504T256 657T476 711Q605 711 697 660T836 525T883 343Q883 248 855 186T780 94T680 64Q627 64 596 87T560 151H558Q504 64 409 64Q341 64 300 111T258 240Q258
309 284 368T359 463T469 499Q515 499 549 478T594 423H596L602 458Q604 472 614 480T641 488Q658 488 667 479T677 454Q677 447 676 443L638 227Q634 197 634 189Q634 156 648 142T694 127Q720 127 746 148T791 218T809 343Q809 423 772 491T659 600T476 642Q375
642 295 598T170 469T124 270Q124 163 166 83T287 -40T475 -84Q617 -84 703 -9Q718 3 732 3Q747 3 756 -7T766 -33Q766 -51 750 -64Q707 -105 635 -129T475 -154Q345 -154 248 -101ZM473 127T507 155T558 230T576 326Q576 379 551 407T481 435Q436 435 403 407T353
335T336 242Q336 187 361 157T426 127Q473 127 507 155Z" />
<glyph unicode="A" glyph-name="A" horiz-adv-x="734" d="M709 48T709 40Q709 21 694 8T659 -5Q646 -5 635 2T617 24L551 174H185L119 24Q113 10 101 3T76 -5Q56 -5 41 8T25 40Q25 48 30 60L312 677Q319 693 334 702T367 711Q384 711 399 702T422 677L704 60Q709
48 709 40ZM222 256H515L368 587L222 256Z" />
<glyph unicode="B" glyph-name="B" horiz-adv-x="678" d="M558 346T591 302T625 192Q625 101 563 51T388 0H133Q109 0 96 13T82 50V655Q82 678 95 691T133 705H377Q486 705 547 657T609 521Q609 465 580 424T497 363Q558 346 591 302ZM183 400H361Q509 400 509
512Q509 568 473 595T361 622H183V400ZM454 83T490 111T526 198Q526 258 490 287T377 317H183V83H377Q454 83 490 111Z" />
<glyph unicode="C" glyph-name="C" horiz-adv-x="677" d="M288 -8T213 35T98 160T58 353Q58 463 98 544T213 669T389 713Q455 713 514 693T617 633Q636 618 636 593Q636 575 626 563T602 550Q585 550 569 563Q521 599 482 613T392 628Q282 628 223 557T164 353Q164
219 223 148T392 77Q440 77 479 92T569 142Q589 155 602 155Q616 155 626 143T636 112Q636 87 617 72Q573 33 514 13T389 -8Q288 -8 213 35Z" />
<glyph unicode="D" glyph-name="D" horiz-adv-x="746" d="M109 0T96 13T82 50V655Q82 678 95 691T133 705H329Q500 705 594 613T688 353Q688 185 594 93T329 0H133Q109 0 96 13ZM323 86Q583 86 583 353Q583 619 323 619H185V86H323Z" />
<glyph unicode="E" glyph-name="E" horiz-adv-x="585" d="M109 0T96 13T82 50V655Q82 678 95 691T133 705H501Q524 705 536 694T549 663Q549 643 537 633T501 622H183V400H481Q504 400 516 389T529 358Q529 338 517 327T481 316H183V83H501Q549 83 549 42Q549
22 537 11T501 0H133Q109 0 96 13Z" />
<glyph unicode="F" glyph-name="F" horiz-adv-x="561" d="M110 -5T96 9T82 47V655Q82 678 95 691T133 705H491Q539 705 539 663Q539 621 491 621H184V400H471Q519 400 519 358Q519 316 471 316H184V47Q184 23 171 9T133 -5Q110 -5 96 9Z" />
<glyph unicode="G" glyph-name="G" horiz-adv-x="728" d="M631 374T642 363T654 333V99Q654 65 645 50T607 26Q567 10 512 1T403 -8Q296 -8 218 35T99 159T58 353Q58 464 99 545T216 669T396 713Q466 713 525 693T627 633Q647 617 647 593Q647 575 637 563T613
550Q604 550 597 553T579 563Q530 599 490 613T398 628Q284 628 224 558T164 353Q164 216 225 146T406 75Q486 75 560 99V296H429Q409 296 398 306T386 335Q386 353 397 363T429 374H612Q631 374 642 363Z" />
<glyph unicode="H" glyph-name="H" horiz-adv-x="762" d="M652 710T666 696T680 658V47Q680 24 666 10T629 -5Q606 -5 592 9T578 47V316H184V47Q184 24 170 10T133 -5Q110 -5 96 9T82 47V658Q82 681 96 695T133 710Q156 710 170 696T184 658V400H578V658Q578 681
592 695T629 710Q652 710 666 696Z" />
<glyph unicode="I" glyph-name="I" horiz-adv-x="267" d="M110 -5T96 9T82 47V658Q82 681 96 695T133 710Q157 710 171 696T185 658V47Q185 23 172 9T133 -5Q110 -5 96 9Z" />
<glyph unicode="J" glyph-name="J" horiz-adv-x="341" d="M20 -7T4 4T-12 37Q-12 76 31 79L62 81Q109 83 132 109T155 193V658Q155 681 169 695T207 710Q231 710 245 696T259 658V193Q259 99 215 51T81 -3L50 -5Q20 -7 4 4Z" />
<glyph unicode="K" glyph-name="K" horiz-adv-x="642" d="M624 62T624 43Q624 24 610 10T576 -4Q557 -4 541 12L185 333V47Q185 23 172 9T133 -5Q110 -5 96 9T82 47V658Q82 681 96 695T133 710Q157 710 171 696T185 658V384L526 695Q540 709 559 709Q578 709 592
695T606 663Q606 644 589 628L291 362L607 78Q624 62 624 43Z" />
<glyph unicode="L" glyph-name="L" horiz-adv-x="547" d="M109 0T96 13T82 48V658Q82 681 96 695T133 710Q157 710 171 696T185 658V86H489Q512 86 524 75T537 43Q537 22 525 11T489 0H132Q109 0 96 13Z" />
<glyph unicode="M" glyph-name="M" horiz-adv-x="841" d="M730 710T744 696T758 658V44Q758 21 746 8T711 -5Q690 -5 678 8T666 44V509L470 136Q451 101 421 101Q391 101 372 136L175 505V44Q175 21 163 8T129 -5Q108 -5 96 8T83 44V658Q83 681 97 695T133 710Q164
710 183 674L422 217L659 674Q678 710 708 710Q730 710 744 696Z" />
<glyph unicode="N" glyph-name="N" horiz-adv-x="743" d="M634 710T647 696T661 658V47Q661 24 647 10T611 -5Q585 -5 571 15L179 532V47Q179 24 166 10T130 -5Q108 -5 95 9T82 47V658Q82 681 96 695T132 710Q158 710 172 690L564 172V658Q564 681 577 695T612
710Q634 710 647 696Z" />
<glyph unicode="O" glyph-name="O" horiz-adv-x="771" d="M285 -8T212 36T98 161T58 352Q58 463 97 544T211 669T385 713Q486 713 560 670T673 545T713 353Q713 243 674 162T560 36T385 -8Q285 -8 212 36ZM491 76T550 148T609 353Q609 486 551 557T385 629Q280
629 222 558T163 353Q163 220 221 148T385 76Q491 76 550 148Z" />
<glyph unicode="P" glyph-name="P" horiz-adv-x="652" d="M110 -5T96 9T82 47V655Q82 678 95 691T133 705H374Q486 705 548 650T610 494Q610 394 548 338T374 282H185V47Q185 23 172 9T133 -5Q110 -5 96 9ZM363 365Q511 365 511 494Q511 622 363 622H185V365H363Z" />
<glyph unicode="Q" glyph-name="Q" horiz-adv-x="771" d="M637 -115Q646 -130 646 -144Q646 -162 632 -173T599 -185Q567 -185 548 -155L490 -59Q458 -8 385 -8Q285 -8 212 36T98 161T58 352Q58 463 97 544T211 669T385 713Q486 713 560 670T673 545T713 353Q713
230 663 143T522 18Q565 4 597 -49L637 -115ZM163 220T221 148T385 76Q491 76 550 148T609 353Q609 486 551 557T385 629Q280 629 222 558T163 353Q163 220 221 148Z" />
<glyph unicode="R" glyph-name="R" horiz-adv-x="690" d="M641 51T641 36Q641 18 627 6T593 -7Q565 -7 548 18L414 226Q391 262 365 276T297 291H184V47Q184 23 171 9T133 -5Q110 -5 96 9T82 47V655Q82 678 95 691T133 705H382Q499 705 560 653T622 501Q622 418
575 367T441 301Q467 294 488 276T529 226L632 64Q641 51 641 36ZM370 374Q448 374 485 404T523 499Q523 563 486 592T370 622H183V374H370Z" />
<glyph unicode="S" glyph-name="S" horiz-adv-x="627" d="M239 -8T171 13T61 71Q42 87 42 112Q42 130 52 142T76 155Q90 155 110 142Q199 76 313 76Q393 76 436 106T479 192Q479 236 439 258T311 300Q227 318 173 341T89 403T58 504Q58 565 91 612T185 686T322
713Q393 713 453 693T555 634Q575 617 575 593Q575 576 565 563T540 550Q527 550 507 563Q461 598 421 613T323 629Q246 629 203 598T160 510Q160 462 198 438T320 393Q408 373 462 352T549 293T582 196Q582 136 549 90T455 18T315 -8Q239 -8 171 13Z" />
<glyph unicode="T" glyph-name="T" horiz-adv-x="605" d="M279 -5T265 9T250 47V619H50Q2 619 2 662Q2 683 14 694T50 705H554Q577 705 589 694T602 662Q602 619 554 619H354V47Q354 24 340 10T302 -5Q279 -5 265 9Z" />
<glyph unicode="U" glyph-name="U" horiz-adv-x="728" d="M223 -8T150 65T77 280V658Q77 682 91 696T128 710Q151 710 165 696T179 658V273Q179 176 225 126T364 76Q455 76 502 126T549 273V658Q549 681 563 695T600 710Q623 710 637 696T651 658V280Q651 139
578 66T364 -8Q223 -8 150 65Z" />
<glyph unicode="V" glyph-name="V" horiz-adv-x="701" d="M610 711T640 711Q660 711 676 698T692 665Q692 658 687 646L405 28Q398 12 383 3T351 -6Q334 -6 319 3T296 28L15 646Q10 658 10 665Q10 685 26 698T63 711Q94 711 107 683L352 134L597 683Q610 711 640 711Z" />
<glyph unicode="W" glyph-name="W" horiz-adv-x="1105" d="M982 695T994 703T1021 711Q1040 711 1054 699T1069 666Q1069 655 1065 646L844 28Q837 11 822 2T789 -7Q772 -7 757 2T736 28L554 544L368 28Q362 11 347 2T315 -7Q297 -7 283 2T261 28L40 646Q36 655
36 666Q36 686 51 698T87 711Q102 711 114 703T133 679L318 147L506 674Q512 691 525 700T555 709Q571 709 584 700T604 673L788 142L976 679Q982 695 994 703Z" />
<glyph unicode="X" glyph-name="X" horiz-adv-x="654" d="M629 60T629 43Q629 24 614 10T580 -5Q559 -5 544 13L327 286L109 13Q94 -5 74 -5Q55 -5 40 9T25 43Q25 59 37 74L267 359L48 631Q36 644 36 662Q36 681 50 695T84 710Q105 710 120 692L327 431L534 692Q548
710 570 710Q589 710 604 696T619 662Q619 645 606 631L387 359L616 74Q629 60 629 43Z" />
<glyph unicode="Y" glyph-name="Y" horiz-adv-x="611" d="M537 710T558 710Q576 710 590 696T605 662Q605 644 593 631L357 337V47Q357 22 343 9T305 -5Q282 -5 268 8T254 47V337L18 631Q6 644 6 663Q6 682 20 696T53 710Q73 710 88 692L306 418L523 692Q537 710
558 710Z" />
<glyph unicode="Z" glyph-name="Z" horiz-adv-x="595" d="M569 84T569 42Q569 0 521 0H83Q62 0 50 12T37 43Q37 63 50 82L431 621H86Q38 621 38 663Q38 705 86 705H511Q533 705 545 693T558 661Q558 641 545 624L163 84H521Q569 84 569 42Z" />
<glyph unicode="[" glyph-name="bracketleft" horiz-adv-x="331" d="M165 -180T137 -151T108 -69V594Q108 647 136 676T217 705H289Q307 705 319 695T331 666Q331 647 319 637T289 627H250Q228 627 218 617T207 583V-58Q207 -81 217 -91T250 -102H289Q307 -102
319 -112T331 -141Q331 -160 319 -170T289 -180H217Q165 -180 137 -151Z" />
<glyph unicode="\" glyph-name="backslash" horiz-adv-x="296" d="M-9 698Q-12 707 -12 714Q-12 731 1 742T31 754Q44 754 55 747T71 723L305 -10Q308 -19 308 -26Q308 -43 295 -54T265 -66Q252 -66 241 -59T225 -35L-9 698Z" />
<glyph unicode="]" glyph-name="bracketright" horiz-adv-x="331" d="M23 -180T12 -170T0 -141Q0 -122 12 -112T41 -102H81Q124 -102 124 -58V583Q124 627 81 627H41Q24 627 12 637T0 666Q0 685 11 695T41 705H113Q166 705 194 676T223 594V-69Q223 -122 195 -151T113
-180H41Q23 -180 12 -170Z" />
<glyph unicode="^" glyph-name="asciicircum" horiz-adv-x="600" d="M533 186T533 178Q533 162 521 152T494 142Q474 142 465 161L300 537L135 161Q131 151 124 146T106 141Q92 141 80 152T68 179Q68 189 72 198L246 594Q254 610 268 619T300 629Q318 629 332
620T354 594L528 198Q533 186 533 178Z" />
<glyph unicode="_" glyph-name="underscore" horiz-adv-x="500" d="M22 -63T11 -54T0 -32Q0 -18 11 -9T40 0H460Q478 0 489 -9T500 -32Q500 -45 489 -54T460 -63H40Q22 -63 11 -54Z" />
<glyph unicode="`" glyph-name="grave" horiz-adv-x="300" d="M-6 673Q-30 693 -30 716Q-30 734 -17 746T15 759Q42 759 61 733L169 592Q176 584 176 574Q176 563 168 555T148 547Q137 547 129 554L-6 673Z" />
<glyph unicode="a" glyph-name="a" horiz-adv-x="535" d="M372 500T419 451T467 302V43Q467 20 454 8T418 -5Q396 -5 383 8T370 43V80Q351 38 314 16T226 -7Q178 -7 138 12T76 67T53 145Q53 198 80 228T171 272T346 285H369V314Q369 370 346 395T272 420Q237 420
206 411T138 385Q111 370 100 370Q85 370 76 381T66 409Q66 424 74 435T102 458Q137 477 184 488T275 500Q372 500 419 451ZM299 68T334 105T369 202V228H351Q273 228 231 221T171 198T153 150Q153 114 179 91T244 68Q299 68 334 105Z" />
<glyph unicode="b" glyph-name="b" horiz-adv-x="591" d="M396 500T445 469T521 381T549 248Q549 173 522 115T445 25T332 -7Q277 -7 235 16T171 84V44Q171 22 158 9T121 -5Q98 -5 84 8T70 44V662Q70 684 84 697T122 710Q144 710 157 698T171 664V408Q193 452
235 476T332 500Q396 500 445 469ZM373 73T409 119T446 248Q446 330 410 374T308 419Q242 419 207 374T171 246Q171 163 206 118T308 73Q373 73 409 119Z" />
<glyph unicode="c" glyph-name="c" horiz-adv-x="483" d="M208 -7T155 24T72 112T42 244Q42 320 72 378T158 468T284 500Q322 500 360 489T429 459Q461 437 461 408Q461 391 452 380T429 368Q420 368 411 372T388 386Q363 402 342 410T290 419Q222 419 185 373T147
245Q147 163 184 119T289 74Q319 74 342 83T389 107Q400 114 411 119T431 124Q445 124 454 113T463 84Q463 70 456 59T430 35Q400 15 360 4T279 -7Q208 -7 155 24Z" />
<glyph unicode="d" glyph-name="d" horiz-adv-x="591" d="M492 710T506 697T520 662V44Q520 21 507 8T470 -5Q447 -5 434 8T420 44V84Q398 40 356 17T259 -7Q196 -7 147 25T70 115T42 248Q42 324 69 381T146 469T259 500Q314 500 355 477T419 410V664Q419 685
432 697T469 710Q492 710 506 697ZM348 73T384 118T420 246Q420 329 385 374T283 419Q217 419 181 375T144 248Q144 166 181 120T283 73Q348 73 384 118Z" />
<glyph unicode="e" glyph-name="e" horiz-adv-x="529" d="M466 123T475 112T484 84Q484 55 448 35Q413 15 372 4T292 -7Q176 -7 109 60T42 245Q42 320 71 378T154 468T276 500Q374 500 431 437T488 267Q488 227 452 227H143Q153 72 292 72Q329 72 356 82T413 108Q416
110 429 116T452 123Q466 123 475 112ZM220 426T185 389T143 285H401Q398 353 367 389T278 426Q220 426 185 389Z" />
<glyph unicode="f" glyph-name="f" horiz-adv-x="342" d="M250 624T226 597T202 516V488H301Q322 488 333 478T345 449Q345 431 334 421T301 410H202V44Q202 20 188 8T151 -5Q129 -5 115 7T101 44V410H41Q20 410 9 420T-3 449Q-3 467 8 477T41 488H101V501Q101
593 148 645T281 704L307 706Q339 708 353 699T368 670Q368 635 326 630L300 628Q250 624 226 597Z" />
<glyph unicode="g" glyph-name="g" horiz-adv-x="595" d="M497 498T510 485T524 449V39Q524 -73 465 -130T289 -187Q181 -187 109 -146Q72 -125 72 -96Q72 -79 81 -68T105 -57Q118 -57 146 -72Q182 -89 213 -98T287 -108Q425 -108 425 31V108Q404 64 361 40T261
15Q197 15 147 45T70 130T42 257Q42 329 70 384T147 469T261 500Q317 500 359 476T424 408V450Q424 472 437 485T474 498Q497 498 510 485ZM350 95T387 138T424 257Q424 332 388 375T285 419Q219 419 182 376T144 257Q144 181 182 138T285 95Q350 95 387 138Z"
/>
<glyph unicode="h" glyph-name="h" horiz-adv-x="576" d="M508 500T508 303V43Q508 21 494 8T457 -5Q434 -5 421 8T407 43V302Q407 362 383 390T306 418Q245 418 208 380T171 278V43Q171 21 158 8T121 -5Q98 -5 84 8T70 43V662Q70 684 84 697T122 710Q144 710
157 698T171 664V414Q196 456 238 478T334 500Q508 500 508 303Z" />
<glyph unicode="i" glyph-name="i" horiz-adv-x="242" d="M99 -5T85 7T70 43V449Q70 473 84 485T121 498Q143 498 157 486T171 449V43Q171 19 157 7T121 -5Q99 -5 85 7ZM92 596T75 612T58 654Q58 680 75 695T121 711Q149 711 166 696T184 654Q184 628 167 612T121
596Q92 596 75 612Z" />
<glyph unicode="j" glyph-name="j" horiz-adv-x="242" d="M-46 -184T-62 -174T-78 -143Q-78 -127 -68 -118T-36 -106L-8 -104Q31 -102 50 -80T70 -10V449Q70 473 84 485T121 498Q143 498 157 486T171 449V-4Q171 -88 132 -131T11 -180L-16 -182Q-46 -184 -62 -174ZM92
596T75 612T58 654Q58 680 75 695T121 711Q149 711 166 696T184 654Q184 628 167 612T121 596Q92 596 75 612Z" />
<glyph unicode="k" glyph-name="k" horiz-adv-x="517" d="M498 64T498 42Q498 23 485 9T454 -5Q435 -5 420 9L171 229V44Q171 20 157 8T121 -5Q99 -5 85 7T70 44V661Q70 685 84 697T121 710Q143 710 157 698T171 661V269L399 482Q416 497 432 497Q451 497 465
483T479 450Q479 431 462 415L284 252L480 79Q498 64 498 42Z" />
<glyph unicode="l" glyph-name="l" horiz-adv-x="242" d="M99 -5T85 7T70 43V661Q70 685 84 697T121 710Q143 710 157 698T171 661V43Q171 19 157 7T121 -5Q99 -5 85 7Z" />
<glyph unicode="m" glyph-name="m" horiz-adv-x="862" d="M794 500T794 303V43Q794 20 780 8T743 -5Q721 -5 707 7T693 43V302Q693 363 671 390T602 418Q547 418 515 381T483 278V43Q483 20 469 8T432 -5Q410 -5 396 7T382 43V302Q382 363 360 390T291 418Q236
418 204 381T171 278V43Q171 20 157 8T121 -5Q99 -5 85 7T70 43V450Q70 472 85 485T121 498Q142 498 155 486T169 451V414Q191 456 230 478T320 500Q376 500 412 477T467 406Q489 449 532 474T630 500Q794 500 794 303Z" />
<glyph unicode="n" glyph-name="n" horiz-adv-x="576" d="M508 500T508 303V43Q508 20 495 8T457 -5Q434 -5 421 8T407 43V298Q407 360 383 389T306 418Q245 418 208 380T171 278V43Q171 21 158 8T121 -5Q98 -5 84 8T70 43V450Q70 471 84 484T121 498Q143 498
156 485T169 451V410Q193 454 236 477T333 500Q508 500 508 303Z" />
<glyph unicode="o" glyph-name="o" horiz-adv-x="564" d="M210 -7T156 24T72 112T42 246Q42 323 71 380T155 469T282 500Q354 500 408 469T492 381T522 246Q522 170 493 113T409 24T282 -7Q210 -7 156 24ZM349 73T384 117T420 246Q420 330 384 374T282 419Q216
419 180 375T144 246Q144 161 179 117T282 73Q349 73 384 117Z" />
<glyph unicode="p" glyph-name="p" horiz-adv-x="591" d="M395 500T444 468T521 378T549 244Q549 169 522 112T446 24T332 -7Q277 -7 235 16T171 84V-139Q171 -160 158 -172T122 -185Q99 -185 85 -172T70 -137V449Q70 471 84 484T121 498Q143 498 157 485T171
449V408Q193 452 235 476T332 500Q395 500 444 468ZM374 73T410 117T446 244Q446 327 410 373T308 419Q242 419 207 374T171 246Q171 163 206 118T308 73Q374 73 410 117Z" />
<glyph unicode="q" glyph-name="q" horiz-adv-x="591" d="M493 498T506 485T520 449V-137Q520 -159 506 -172T469 -185Q446 -185 433 -173T419 -139V82Q397 39 356 16T259 -7Q195 -7 146 24T69 112T42 244Q42 320 69 378T146 468T259 500Q314 500 356 476T420
408V449Q420 471 433 484T470 498Q493 498 506 485ZM349 73T384 118T420 246Q420 329 385 374T283 419Q218 419 181 373T144 244Q144 162 180 118T283 73Q349 73 384 118Z" />
<glyph unicode="r" glyph-name="r" horiz-adv-x="366" d="M374 501T374 457Q374 435 363 424T325 411L295 408Q232 402 202 364T171 272V43Q171 19 157 7T121 -5Q99 -5 85 7T70 43V450Q70 473 84 485T121 498Q141 498 154 486T168 451V403Q188 447 226 470T312
497L326 498Q374 501 374 457Z" />
<glyph unicode="s" glyph-name="s" horiz-adv-x="482" d="M138 -7T73 35Q55 46 48 58T40 85Q40 101 49 112T72 123Q85 123 113 107Q143 91 171 81T243 71Q291 71 318 88T345 136Q345 156 335 168T298 189T221 210Q133 229 95 261T56 350Q56 393 81 427T150 481T250
500Q290 500 328 490T395 459Q428 437 428 408Q428 392 419 381T396 370Q387 370 378 374T354 387Q327 403 304 412T245 421Q203 421 178 403T152 354Q152 326 175 311T264 281Q331 267 369 249T423 205T440 137Q440 72 386 33T240 -7Q138 -7 73 35Z" />
<glyph unicode="t" glyph-name="t" horiz-adv-x="353" d="M331 70T340 61T350 34Q350 14 335 4T289 -5L262 -3Q181 3 141 46T101 175V410H41Q-3 410 -3 449Q-3 467 8 477T41 488H101V591Q101 614 114 627T151 640Q174 640 188 627T202 591V488H301Q322 488 333
478T345 449Q345 430 334 420T301 410H202V168Q202 121 221 99T281 74L309 72Q331 70 340 61Z" />
<glyph unicode="u" glyph-name="u" horiz-adv-x="569" d="M471 498T484 485T498 449V42Q498 21 484 8T447 -5Q426 -5 413 7T400 41V79Q377 37 337 15T246 -7Q68 -7 68 189V449Q68 472 81 485T119 498Q142 498 155 485T169 449V190Q169 131 193 103T267 75Q326
75 361 113T397 214V449Q397 471 411 484T448 498Q471 498 484 485Z" />
<glyph unicode="v" glyph-name="v" horiz-adv-x="520" d="M423 483T434 490T459 497Q478 497 492 484T507 453Q507 443 503 434L312 29Q305 13 291 5T260 -4Q244 -4 230 4T208 29L17 434Q13 442 13 453Q13 471 29 484T65 497Q94 497 108 469L263 125L417 468Q423
483 434 490Z" />
<glyph unicode="w" glyph-name="w" horiz-adv-x="848" d="M745 497T775 497Q794 497 809 484T824 452Q824 442 820 434L654 29Q648 13 634 5T603 -4Q587 -4 573 4T553 29L423 350L296 29Q290 13 277 5T246 -4Q230 -4 216 4T194 29L29 434Q25 442 25 451Q25 471
41 484T78 497Q108 497 119 468L248 127L380 465Q386 481 399 489T427 497Q441 497 454 489T473 465L605 129L734 467Q745 497 775 497Z" />
<glyph unicode="x" glyph-name="x" horiz-adv-x="525" d="M496 61T496 41Q496 22 483 9T450 -5Q431 -5 415 12L262 184L110 12Q94 -5 75 -5Q56 -5 43 9T29 42Q29 61 43 76L201 250L51 417Q36 434 36 451Q36 470 50 483T82 497Q101 497 117 480L262 316L407 480Q423
497 443 497Q461 497 475 484T489 451Q489 432 474 417L324 250L481 76Q496 61 496 41Z" />
<glyph unicode="y" glyph-name="y" horiz-adv-x="520" d="M423 483T434 490T459 497Q478 497 492 484T507 453Q507 443 503 434L225 -156Q219 -170 208 -177T183 -185Q165 -185 151 -173T136 -143Q136 -135 141 -123L210 24L17 434Q13 442 13 452Q13 471 29 484T65
497Q95 497 108 469L263 125L417 468Q423 483 434 490Z" />
<glyph unicode="z" glyph-name="z" horiz-adv-x="506" d="M453 78T464 68T476 39Q476 21 465 11T431 0H89Q67 0 54 12T41 44Q41 63 56 81L334 410H83Q62 410 51 420T39 449Q39 467 50 477T83 488H415Q436 488 449 475T463 444Q463 425 448 407L170 78H431Q453 78 464 68Z" />
<glyph unicode="{" glyph-name="braceleft" horiz-adv-x="368" d="M344 -102T356 -112T368 -141Q368 -160 356 -170T326 -180H254Q202 -180 174 -151T145 -69V143Q145 183 130 201T77 222Q57 223 47 234T36 263Q36 280 46 291T77 303Q115 305 130 323T145 382V594Q145
647 173 676T254 705H326Q344 705 356 695T368 666Q368 647 356 637T326 627H287Q265 627 255 617T244 583V371Q244 327 222 299T168 263Q199 256 221 227T244 154V-58Q244 -81 254 -91T287 -102H326Q344 -102 356 -112Z" />
<glyph unicode="|" glyph-name="bar" horiz-adv-x="269" d="M115 -185T101 -172T87 -137V662Q87 683 100 696T135 710Q155 710 168 697T182 662V-137Q182 -158 169 -171T135 -185Q115 -185 101 -172Z" />
<glyph unicode="}" glyph-name="braceright" horiz-adv-x="368" d="M310 302T320 291T331 263Q331 245 321 234T290 222Q253 220 239 202T224 143L223 -69Q223 -122 195 -151T113 -180H41Q23 -180 12 -170T0 -141Q0 -122 12 -112T41 -102H81Q124 -102 124 -58V154Q124
198 146 227T200 263Q169 270 147 298T124 371V583Q124 627 81 627H41Q24 627 12 637T0 666Q0 685 11 695T41 705H113Q166 705 194 676T223 594V382Q223 341 237 323T290 303Q310 302 320 291Z" />
<glyph unicode="~" glyph-name="asciitilde" horiz-adv-x="600" d="M381 212T351 223T282 256Q250 273 231 280T194 288Q156 288 131 256Q117 237 99 237Q89 237 81 242Q74 246 70 253T65 270Q65 280 71 289Q91 322 121 340T188 359Q219 359 249 348T318 315Q353
297 371 290T406 282Q443 282 469 315Q483 334 501 334Q509 334 519 329Q526 325 530 317T535 301Q535 290 529 281Q508 248 479 230T412 212Q381 212 351 223Z" />
<glyph unicode="&#xa0;" glyph-name="uni00A0" horiz-adv-x="264" />
<glyph unicode="&#xa1;" glyph-name="exclamdown" horiz-adv-x="238" d="M92 368T74 386T55 433Q55 461 73 479T119 498Q146 498 164 480T182 433Q182 405 164 387T119 368Q92 368 74 386ZM91 -185T74 -168T60 -122L88 269Q89 285 98 293T119 302Q131 302 140
293T150 269L178 -123Q182 -151 165 -168T119 -185Q91 -185 74 -168Z" />
<glyph unicode="&#xa2;" glyph-name="cent" horiz-adv-x="600" d="M490 124T499 113T508 84Q508 70 501 59T475 35Q428 3 358 -5V-76Q358 -96 347 -108T316 -120Q297 -120 285 -108T273 -76V-2Q187 13 137 79T87 244Q87 342 137 409T273 494V569Q273 588 285 600T316
612Q335 612 346 600T358 569V498Q424 492 474 459Q506 437 506 408Q506 391 497 380T474 368Q465 368 455 373T433 386Q407 402 386 410T335 419Q267 419 230 373T192 245Q192 163 229 119T335 74Q365 74 387 83T434 107Q445 114 456 119T476 124Q490 124 499
113Z" />
<glyph unicode="&#xa3;" glyph-name="sterling" horiz-adv-x="600" d="M548 85T560 74T573 43Q573 0 524 0H85Q36 0 36 43Q36 63 48 74T85 85H137V319H71Q56 319 46 329T36 353Q36 367 46 377T71 387H137V519Q137 608 191 660T340 713Q400 713 456 692T553 633Q573
616 573 593Q573 575 563 563T539 550Q530 550 522 553T505 563Q460 597 422 613T344 629Q296 629 268 600T239 512V387H389Q404 387 414 377T424 353Q424 339 414 329T389 319H239V85H524Q548 85 560 74Z" />
<glyph unicode="&#xa4;" glyph-name="currency" horiz-adv-x="600" d="M99 33T92 42T84 63Q85 72 93 80L134 120Q90 174 90 250Q90 322 132 377L96 414Q90 420 87 425T84 439Q84 449 93 457T112 465Q122 465 134 453L171 416Q223 454 300 454Q376 454 430 416L467
453Q472 458 478 461T490 464Q500 464 508 456T517 438Q517 431 515 426T506 414L468 377Q511 324 511 250Q511 176 467 120L504 86Q516 71 517 58Q516 46 507 39T486 32Q478 33 467 44L427 83Q376 46 300 46Q229 46 173 82L136 46Q124 32 110 32Q99 33 92 42ZM346
100T379 120T429 175T446 250Q446 289 429 323T379 379T300 401Q254 401 221 380T171 323T154 250Q154 211 171 177T221 121T300 100Q346 100 379 120Z" />
<glyph unicode="&#xa5;" glyph-name="yen" horiz-adv-x="600" d="M520 710T541 710Q559 710 573 696T588 662Q588 644 576 631L384 390H504Q519 390 529 381T539 356Q539 341 529 332T504 322H351V238H504Q519 238 529 229T539 204Q539 189 529 180T504 170H351V47Q351
22 337 9T300 -5Q277 -5 263 8T248 47V170H96Q81 170 71 179T61 204Q61 219 71 228T96 238H248V322H96Q81 322 71 331T61 356Q61 371 71 380T96 390H217L24 632Q11 648 11 664Q11 683 25 697T58 711Q79 711 94 692L300 430L506 692Q520 710 541 710Z" />
<glyph unicode="&#xa6;" glyph-name="brokenbar" horiz-adv-x="269" d="M115 366T101 379T87 414V662Q87 683 101 696T135 710Q155 710 168 697T182 662V414Q182 393 169 380T135 366Q115 366 101 379ZM115 -185T101 -172T87 -137V111Q87 132 100 145T135 159Q155
159 168 146T182 111V-137Q182 -158 169 -171T135 -185Q115 -185 101 -172Z" />
<glyph unicode="&#xa7;" glyph-name="section" horiz-adv-x="549" d="M511 166T496 132T451 73Q471 39 471 -7Q471 -91 416 -139T265 -187Q158 -187 92 -144Q75 -133 68 -121T60 -94Q60 -78 69 -68T92 -57Q100 -57 110 -61T132 -72Q163 -89 192 -98T267 -108Q317
-108 344 -84T372 -14Q372 22 353 46T290 92L183 142Q106 179 72 221T38 323Q38 360 53 394T97 454Q78 488 78 532Q78 614 134 663T285 712Q374 712 435 672Q453 659 460 647T468 620Q468 604 459 593T436 582Q427 582 417 587T395 599Q367 616 344 625T286 634Q234
634 206 610T177 540Q177 505 196 481T259 434L365 383Q443 345 477 303T511 203Q511 166 496 132ZM372 152T400 129Q418 156 418 188Q418 222 395 248T320 302L216 355Q169 380 149 397Q130 369 130 337Q130 304 153 278T229 224L333 171Q372 152 400 129Z" />
<glyph unicode="&#xa8;" glyph-name="dieresis" horiz-adv-x="300" d="M37 599T21 614T5 654Q5 678 21 693T62 708Q86 708 102 693T119 654Q119 629 103 614T62 599Q37 599 21 614ZM214 599T198 614T182 654Q182 678 198 693T238 708Q263 708 279 693T295 654Q295
629 279 614T238 599Q214 599 198 614Z" />
<glyph unicode="&#xa9;" glyph-name="copyright" horiz-adv-x="815" d="M308 -5T226 42T97 171T50 353Q50 453 97 534T226 663T408 710Q508 710 589 663T718 535T765 353Q765 253 718 172T589 43T408 -5Q308 -5 226 42ZM494 45T563 85T673 196T713 353Q713 439
673 509T564 619T408 660Q322 660 252 620T142 509T102 353Q102 267 142 197T252 86T408 45Q494 45 563 85ZM322 137T266 195T210 353Q210 452 266 510T416 568Q495 568 549 525Q558 519 561 512T565 493Q565 479 557 467T535 455Q526 455 518 459T507 464Q483
479 464 487T420 495Q363 495 334 460T305 353Q305 210 420 210Q445 210 464 218T507 241Q509 242 517 246T535 250Q549 250 557 238T565 212Q565 201 562 194T549 180Q496 137 416 137Q322 137 266 195Z" />
<glyph unicode="&#xaa;" glyph-name="ordfeminine" horiz-adv-x="333" d="M233 710T265 679T297 583V447Q297 426 285 416T255 405Q238 405 227 415T215 447V459Q204 434 181 420T129 405Q85 405 56 432T26 496Q26 542 63 562T195 582H214V598Q214 624 202 635T163
646Q127 646 89 627Q73 620 65 620Q52 620 45 629T37 651Q37 662 42 670T60 685Q81 696 110 703T170 710Q233 710 265 679ZM178 464T196 481T214 528V539H204Q145 539 126 530T106 501Q106 485 118 475T151 464Q178 464 196 481Z" />
<glyph unicode="&#xab;" glyph-name="guillemotleft" horiz-adv-x="465" d="M64 235Q54 253 54 266Q54 279 64 296L143 427Q157 450 181 450Q196 450 208 440T220 414Q220 406 215 394L152 265L215 137Q220 125 220 117Q220 102 209 92T182 82Q158 82 144 104L64
235ZM257 235Q247 253 247 266Q247 279 257 296L336 427Q350 450 374 450Q389 450 401 440T413 414Q413 406 408 394L345 265L408 137Q413 125 413 117Q413 102 402 92T375 82Q351 82 337 104L257 235Z" />
<glyph unicode="&#xac;" glyph-name="logicalnot" horiz-adv-x="600" d="M490 145T480 156T470 183V351H94Q78 351 67 362T56 389Q56 404 67 414T94 425H506Q522 425 533 414T544 387V183Q544 167 533 156T506 145Q490 145 480 156Z" />
<glyph unicode="&#xad;" glyph-name="uni00AD" horiz-adv-x="429" d="M85 226T73 236T61 266Q61 285 73 296T108 307H321Q344 307 356 296T368 266Q368 247 356 237T321 226H108Q85 226 73 236Z" />
<glyph unicode="&#xae;" glyph-name="registered" horiz-adv-x="815" d="M508 710T589 663T718 535T765 353Q765 253 718 172T589 43T408 -5Q308 -5 226 42T97 171T50 353Q50 453 97 534T226 663T408 710Q508 710 589 663ZM494 45T563 85T673 196T713 353Q713
439 673 509T564 619T408 660Q322 660 252 620T142 509T102 353Q102 267 142 197T252 86T408 45Q494 45 563 85ZM587 199Q597 186 597 174Q597 158 583 147T551 136Q526 136 510 158L432 277Q422 292 411 299T381 306H342V183Q342 161 330 149T297 137Q277 137
264 149T251 183V520Q251 541 262 552T294 564H435Q506 564 545 531T585 436Q585 387 558 355T480 314Q498 310 511 300T540 269L587 199ZM462 375T479 388T497 434Q497 466 480 479T424 493H341V375H424Q462 375 479 388Z" />
<glyph unicode="&#xaf;" glyph-name="overscore" horiz-adv-x="300" d="M11 618T0 627T-11 653Q-11 670 0 679T29 688H271Q289 688 300 679T311 653Q311 637 300 628T271 618H29Q11 618 0 627Z" />
<glyph unicode="&#xb0;" glyph-name="degree" horiz-adv-x="366" d="M142 417T108 436T55 488T35 563Q35 605 54 638T108 691T183 710Q224 710 257 691T310 639T330 563Q330 522 311 489T258 436T183 417Q142 417 108 436ZM219 476T242 500T266 563Q266 601 243
625T183 650Q147 650 123 626T99 563Q99 525 123 501T183 476Q219 476 242 500Z" />
<glyph unicode="&#xb1;" glyph-name="plusminus" horiz-adv-x="600" d="M78 292T67 303T56 330Q56 346 67 356T94 366H263V491Q263 507 274 518T301 529Q316 529 326 518T337 491V366H506Q522 366 533 355T544 328Q544 313 533 303T506 292H337V167Q337 151 326
140T299 129Q284 129 274 140T263 167V292H94Q78 292 67 303ZM528 74T539 63T550 36Q550 21 539 11T512 0H100Q84 0 73 11T62 38Q62 53 73 63T100 74H512Q528 74 539 63Z" />
<glyph unicode="&#xb2;" glyph-name="uni00B2" horiz-adv-x="380" d="M349 354T349 318Q349 282 306 282H82Q64 282 53 292T42 318Q42 339 59 356L191 499Q214 525 225 546T237 588Q237 613 222 626T179 639Q144 639 95 608Q88 604 81 601T66 598Q53 598 45 610T36
634Q36 645 39 652T53 666Q79 686 115 697T186 709Q250 709 288 677T326 592Q326 556 311 525T258 456L159 354H306Q349 354 349 318Z" />
<glyph unicode="&#xb3;" glyph-name="uni00B3" horiz-adv-x="380" d="M296 489T316 463T336 398Q336 344 296 311T182 278Q144 278 107 289T45 322Q30 333 30 354Q30 366 38 378T60 390Q71 390 88 379Q111 365 132 357T179 348Q252 348 252 405Q252 461 176 461H140Q124
461 115 471T106 496Q106 510 115 520T140 530H165Q240 530 240 588Q240 612 224 625T180 639Q144 639 95 608Q87 604 80 601T65 598Q52 598 44 610T36 636Q36 655 52 666Q78 686 114 697T184 709Q251 709 288 677T326 595Q326 561 308 537T259 500Q296 489 316
463Z" />
<glyph unicode="&#xb4;" glyph-name="acute" horiz-adv-x="300" d="M163 547T152 547Q141 547 133 555T124 574Q124 584 131 592L239 733Q259 760 285 760Q304 760 317 747T330 716Q330 693 306 673L171 554Q163 547 152 547Z" />
<glyph unicode="&#xb5;" glyph-name="uni00B5" horiz-adv-x="569" d="M471 498T484 485T498 449V42Q498 20 484 8T447 -5Q426 -5 413 7T400 41V79Q377 37 337 15T246 -7Q203 -7 169 10V-137Q169 -159 155 -172T118 -185Q95 -185 82 -173T68 -139V449Q68 471 82
484T119 498Q142 498 155 485T169 449V190Q169 129 193 102T267 75Q324 75 360 112T397 214V449Q397 471 411 484T448 498Q471 498 484 485Z" />
<glyph unicode="&#xb6;" glyph-name="paragraph" horiz-adv-x="596" d="M268 -185T257 -174T246 -146V297Q185 297 139 323T67 395T41 501Q41 561 66 607T139 679T248 705H475Q492 705 503 694T514 666V-146Q514 -162 503 -173T476 -185Q460 -185 449 -174T437
-146V636H322V-146Q322 -163 311 -174T284 -185Q268 -185 257 -174Z" />
<glyph unicode="&#xb7;" glyph-name="middot" horiz-adv-x="238" d="M92 202T74 220T55 266Q55 294 73 312T119 331Q146 331 164 313T182 266Q182 238 164 220T119 202Q92 202 74 220Z" />
<glyph unicode="&#xb8;" glyph-name="cedilla" horiz-adv-x="300" d="M225 -41T246 -59T268 -110Q268 -147 236 -170T145 -194Q106 -194 76 -183Q58 -176 58 -158Q58 -146 66 -138T89 -134Q119 -142 145 -142Q171 -142 185 -134T199 -110Q199 -98 192 -92T170
-85Q160 -85 143 -89T122 -93Q114 -93 108 -88T102 -73L113 20H177L169 -44Q182 -41 194 -41Q225 -41 246 -59Z" />
<glyph unicode="&#xb9;" glyph-name="uni00B9" horiz-adv-x="380" d="M342 354T342 318Q342 282 298 282H133Q90 282 90 318Q90 354 133 354H172V607L129 581Q119 576 111 576Q96 576 86 588T76 615Q76 636 94 646L176 695Q199 707 217 707Q236 707 248 696T260
663V354H298Q342 354 342 318Z" />
<glyph unicode="&#xba;" glyph-name="ordmasculine" horiz-adv-x="351" d="M101 405T61 447T20 558Q20 625 60 667T175 710Q249 710 290 668T331 558Q331 491 290 448T175 405Q101 405 61 447ZM209 474T227 495T245 558Q245 599 227 620T175 642Q141 642 124 621T106
558Q106 517 123 496T175 474Q209 474 227 495Z" />
<glyph unicode="&#xbb;" glyph-name="guillemotright" horiz-adv-x="462" d="M117 82T91 82Q76 82 65 92T53 117Q53 128 58 137L121 265L58 394Q53 403 53 415Q53 430 64 440T91 450Q115 450 129 427L205 296Q215 282 215 266Q215 251 205 235L129 104Q117 82
91 82ZM310 82T284 82Q269 82 258 92T246 117Q246 128 251 137L314 265L251 394Q246 403 246 415Q246 430 257 440T284 450Q308 450 322 427L398 296Q408 282 408 266Q408 251 398 235L322 104Q310 82 284 82Z" />
<glyph unicode="&#xbc;" glyph-name="onequarter" horiz-adv-x="941" d="M342 354T342 318Q342 282 298 282H133Q90 282 90 318Q90 354 133 354H172V607L129 581Q119 576 111 576Q96 576 86 588T76 615Q76 636 94 646L176 695Q199 707 217 707Q236 707 248 696T260
663V354H298Q342 354 342 318ZM303 -17T278 -17Q263 -17 252 -6T241 21Q241 36 249 49L623 696Q638 722 663 722Q678 722 689 711T700 684Q700 669 692 656L318 9Q303 -17 278 -17ZM907 145T917 136T928 111Q928 95 918 87T888 78H861V37Q861 17 850 7T820 -4Q801
-4 790 6T779 37V78H624Q606 78 595 89T584 117Q584 133 595 149L778 406Q792 426 817 426Q835 426 848 414T861 381V145H888Q907 145 917 136ZM667 145H779V303L667 145Z" />
<glyph unicode="&#xbd;" glyph-name="onehalf" horiz-adv-x="941" d="M342 354T342 318Q342 282 298 282H133Q90 282 90 318Q90 354 133 354H172V607L129 581Q119 576 111 576Q96 576 86 588T76 615Q76 636 94 646L176 695Q199 707 217 707Q236 707 248 696T260
663V354H298Q342 354 342 318ZM303 -17T278 -17Q263 -17 252 -6T241 21Q241 36 249 49L623 696Q638 722 663 722Q678 722 689 711T700 684Q700 669 692 656L318 9Q303 -17 278 -17ZM910 72T910 36Q910 0 867 0H643Q625 0 614 10T603 36Q603 57 620 74L752 217Q775
243 786 264T798 306Q798 331 783 344T740 357Q705 357 656 326Q649 322 642 319T627 316Q614 316 606 328T597 352Q597 363 600 370T614 384Q640 404 676 415T747 427Q811 427 849 395T887 310Q887 274 872 243T819 174L720 72H867Q910 72 910 36Z" />
<glyph unicode="&#xbe;" glyph-name="threequarters" horiz-adv-x="941" d="M296 489T316 463T336 398Q336 344 296 311T182 278Q144 278 107 289T45 322Q30 333 30 354Q30 366 38 378T60 390Q71 390 88 379Q111 365 132 357T179 348Q252 348 252 405Q252 461
176 461H140Q124 461 115 471T106 496Q106 510 115 520T140 530H165Q240 530 240 588Q240 612 224 625T180 639Q144 639 95 608Q87 604 80 601T65 598Q52 598 44 610T36 636Q36 655 52 666Q78 686 114 697T184 709Q251 709 288 677T326 595Q326 561 308 537T259
500Q296 489 316 463ZM303 -17T278 -17Q263 -17 252 -6T241 21Q241 36 249 49L623 696Q638 722 663 722Q678 722 689 711T700 684Q700 669 692 656L318 9Q303 -17 278 -17ZM907 145T917 136T928 111Q928 95 918 87T888 78H861V37Q861 17 850 7T820 -4Q801 -4 790
6T779 37V78H624Q606 78 595 89T584 117Q584 133 595 149L778 406Q792 426 817 426Q835 426 848 414T861 381V145H888Q907 145 917 136ZM667 145H779V303L667 145Z" />
<glyph unicode="&#xbf;" glyph-name="questiondown" horiz-adv-x="450" d="M209 368T191 386T173 433Q173 461 191 479T236 498Q264 498 282 480T300 433Q300 405 282 387T236 368Q209 368 191 386ZM131 -187T76 -144T20 -30Q20 5 32 33T63 81T112 130Q154 168
177 199T205 274Q207 287 216 294T237 302Q251 302 259 292T268 265Q268 224 257 193T229 140T185 90Q154 59 139 35T123 -23Q123 -60 151 -81T227 -103Q268 -103 304 -87T386 -38Q407 -25 419 -25Q434 -25 443 -37T453 -68Q453 -92 434 -108Q393 -145 336 -166T221
-187Q131 -187 76 -144Z" />
<glyph unicode="&#xc0;" glyph-name="Agrave" horiz-adv-x="734" d="M709 48T709 40Q709 21 694 8T659 -5Q646 -5 635 2T617 24L551 174H185L119 24Q113 10 101 3T76 -5Q56 -5 41 8T25 40Q25 48 30 60L312 677Q319 693 334 702T367 711Q384 711 399 702T422 677L704
60Q709 48 709 40ZM222 256H515L368 587L222 256ZM237 841Q209 858 209 882Q209 899 221 911T250 923Q270 923 289 904L384 803Q393 794 393 784Q393 774 386 767T367 760Q359 760 352 764L237 841Z" />
<glyph unicode="&#xc1;" glyph-name="Aacute" horiz-adv-x="734" d="M709 48T709 40Q709 21 694 8T659 -5Q646 -5 635 2T617 24L551 174H185L119 24Q113 10 101 3T76 -5Q56 -5 41 8T25 40Q25 48 30 60L312 677Q319 693 334 702T367 711Q384 711 399 702T422 677L704
60Q709 48 709 40ZM222 256H515L368 587L222 256ZM375 760T367 760Q356 760 349 767T341 784Q341 794 350 803L445 904Q464 923 484 923Q501 923 513 911T525 882Q525 858 497 841L382 764Q375 760 367 760Z" />
<glyph unicode="&#xc2;" glyph-name="Acircumflex" horiz-adv-x="734" d="M709 48T709 40Q709 21 694 8T659 -5Q646 -5 635 2T617 24L551 174H185L119 24Q113 10 101 3T76 -5Q56 -5 41 8T25 40Q25 48 30 60L312 677Q319 693 334 702T367 711Q384 711 399 702T422
677L704 60Q709 48 709 40ZM222 256H515L368 587L222 256ZM275 760T260 760Q246 760 237 770T227 793Q227 807 240 820L326 905Q344 922 367 922Q390 922 408 905L494 820Q507 807 507 793Q507 780 497 770T473 760Q459 760 447 772L367 858L287 772Q275 760 260
760Z" />
<glyph unicode="&#xc3;" glyph-name="Atilde" horiz-adv-x="734" d="M709 48T709 40Q709 21 694 8T659 -5Q646 -5 635 2T617 24L551 174H185L119 24Q113 10 101 3T76 -5Q56 -5 41 8T25 40Q25 48 30 60L312 677Q319 693 334 702T367 711Q384 711 399 702T422 677L704
60Q709 48 709 40ZM222 256H515L368 587L222 256ZM422 788T404 793T360 809Q317 826 296 826Q281 826 272 820T255 803Q253 801 249 797T240 790T230 787Q219 787 212 795T205 815Q205 833 216 852T248 885T295 898Q312 898 330 893T374 877Q417 860 438 860Q453
860 462 866T479 882Q487 891 492 894T504 898Q515 898 522 891T529 871Q529 853 518 834T486 801T439 788Q422 788 404 793Z" />
<glyph unicode="&#xc4;" glyph-name="Adieresis" horiz-adv-x="734" d="M709 48T709 40Q709 21 694 8T659 -5Q646 -5 635 2T617 24L551 174H185L119 24Q113 10 101 3T76 -5Q56 -5 41 8T25 40Q25 48 30 60L312 677Q319 693 334 702T367 711Q384 711 399 702T422
677L704 60Q709 48 709 40ZM222 256H515L368 587L222 256ZM254 788T238 803T222 842Q222 867 238 882T279 897Q303 897 319 882T336 842Q336 818 320 803T279 788Q254 788 238 803ZM431 788T415 803T399 842Q399 866 415 881T455 897Q480 897 496 882T512 842Q512
818 496 803T455 788Q431 788 415 803Z" />
<glyph unicode="&#xc5;" glyph-name="Aring" horiz-adv-x="734" d="M709 48T709 40Q709 21 694 8T659 -5Q646 -5 635 2T617 24L551 174H185L119 24Q113 10 101 3T76 -5Q56 -5 41 8T25 40Q25 48 30 60L317 686Q293 699 279 722T264 774Q264 817 294 846T367 876Q411
876 441 847T471 774Q471 745 457 722T418 686L704 60Q709 48 709 40ZM347 823T334 809T321 774Q321 753 334 739T367 725Q387 725 400 739T414 774Q414 794 401 808T367 823Q347 823 334 809ZM222 256H515L368 587L222 256Z" />
<glyph unicode="&#xc6;" glyph-name="AE" horiz-adv-x="994" d="M933 84T945 73T958 42Q958 22 946 11T910 0H612Q592 0 580 10T563 37L533 174H197L105 24Q96 9 83 2T55 -6Q37 -6 23 5T9 32Q9 46 19 60L405 677Q414 691 429 698T463 705H910Q933 705 945 694T958
663Q958 643 946 632T910 621H531L579 400H890Q913 400 925 389T938 358Q938 338 926 327T890 316H597L647 84H910Q933 84 945 73ZM247 256H516L446 582L247 256Z" />
<glyph unicode="&#xc7;" glyph-name="Ccedilla" horiz-adv-x="677" d="M616 155T626 143T636 112Q636 87 617 72Q577 36 524 16T410 -7L405 -44Q419 -41 430 -41Q461 -41 482 -59T504 -110Q504 -147 472 -170T381 -194Q342 -194 312 -183Q294 -176 294 -158Q294
-146 302 -138T325 -134Q355 -142 381 -142Q407 -142 421 -134T435 -110Q435 -98 428 -92T406 -85Q396 -85 379 -89T358 -93Q350 -93 344 -88T338 -73L346 -6Q257 3 192 49T93 172T58 353Q58 463 98 544T213 669T389 713Q455 713 514 693T617 633Q636 618 636 593Q636
575 626 563T602 550Q585 550 569 563Q521 599 482 613T392 628Q282 628 223 557T164 353Q164 219 223 148T392 77Q440 77 479 92T569 142Q589 155 602 155Q616 155 626 143Z" />
<glyph unicode="&#xc8;" glyph-name="Egrave" horiz-adv-x="585" d="M109 0T96 13T82 50V655Q82 678 95 691T133 705H501Q524 705 536 694T549 663Q549 643 537 633T501 622H183V400H481Q504 400 516 389T529 358Q529 338 517 327T481 316H183V83H501Q549 83 549
42Q549 22 537 11T501 0H133Q109 0 96 13ZM196 841Q168 858 168 882Q168 899 180 911T209 923Q229 923 248 904L343 803Q352 794 352 784Q352 774 345 767T326 760Q318 760 311 764L196 841Z" />
<glyph unicode="&#xc9;" glyph-name="Eacute" horiz-adv-x="585" d="M109 0T96 13T82 50V655Q82 678 95 691T133 705H501Q524 705 536 694T549 663Q549 643 537 633T501 622H183V400H481Q504 400 516 389T529 358Q529 338 517 327T481 316H183V83H501Q549 83 549
42Q549 22 537 11T501 0H133Q109 0 96 13ZM334 760T326 760Q315 760 308 767T300 784Q300 794 309 803L404 904Q423 923 443 923Q460 923 472 911T484 882Q484 858 456 841L341 764Q334 760 326 760Z" />
<glyph unicode="&#xca;" glyph-name="Ecircumflex" horiz-adv-x="585" d="M109 0T96 13T82 50V655Q82 678 95 691T133 705H501Q524 705 536 694T549 663Q549 643 537 633T501 622H183V400H481Q504 400 516 389T529 358Q529 338 517 327T481 316H183V83H501Q549
83 549 42Q549 22 537 11T501 0H133Q109 0 96 13ZM234 760T219 760Q205 760 196 770T186 793Q186 807 199 820L285 905Q303 922 326 922Q349 922 367 905L453 820Q466 807 466 793Q466 780 456 770T432 760Q418 760 406 772L326 858L246 772Q234 760 219 760Z"
/>
<glyph unicode="&#xcb;" glyph-name="Edieresis" horiz-adv-x="585" d="M109 0T96 13T82 50V655Q82 678 95 691T133 705H501Q524 705 536 694T549 663Q549 643 537 633T501 622H183V400H481Q504 400 516 389T529 358Q529 338 517 327T481 316H183V83H501Q549 83
549 42Q549 22 537 11T501 0H133Q109 0 96 13ZM213 788T197 803T181 842Q181 867 197 882T238 897Q262 897 278 882T295 842Q295 818 279 803T238 788Q213 788 197 803ZM390 788T374 803T358 842Q358 866 374 881T414 897Q439 897 455 882T471 842Q471 818 455
803T414 788Q390 788 374 803Z" />
<glyph unicode="&#xcc;" glyph-name="Igrave" horiz-adv-x="267" d="M110 -5T96 9T82 47V658Q82 681 96 695T133 710Q157 710 171 696T185 658V47Q185 23 172 9T133 -5Q110 -5 96 9ZM3 841Q-25 858 -25 882Q-25 899 -13 911T16 923Q36 923 55 904L150 803Q159
794 159 784Q159 774 152 767T133 760Q125 760 118 764L3 841Z" />
<glyph unicode="&#xcd;" glyph-name="Iacute" horiz-adv-x="267" d="M110 -5T96 9T82 47V658Q82 681 96 695T133 710Q157 710 171 696T185 658V47Q185 23 172 9T133 -5Q110 -5 96 9ZM141 760T133 760Q122 760 115 767T107 784Q107 794 116 803L211 904Q230 923
250 923Q267 923 279 911T291 882Q291 858 263 841L148 764Q141 760 133 760Z" />
<glyph unicode="&#xce;" glyph-name="Icircumflex" horiz-adv-x="267" d="M110 -5T96 9T82 47V658Q82 681 96 695T133 710Q157 710 171 696T185 658V47Q185 23 172 9T133 -5Q110 -5 96 9ZM41 760T26 760Q12 760 3 770T-7 793Q-7 807 6 820L92 905Q110 922 133
922Q156 922 174 905L260 820Q273 807 273 793Q273 780 263 770T239 760Q225 760 213 772L133 858L53 772Q41 760 26 760Z" />
<glyph unicode="&#xcf;" glyph-name="Idieresis" horiz-adv-x="267" d="M110 -5T96 9T82 47V658Q82 681 96 695T133 710Q157 710 171 696T185 658V47Q185 23 172 9T133 -5Q110 -5 96 9ZM20 788T4 803T-12 842Q-12 867 4 882T45 897Q69 897 85 882T102 842Q102
818 86 803T45 788Q20 788 4 803ZM197 788T181 803T165 842Q165 866 181 881T221 897Q246 897 262 882T278 842Q278 818 262 803T221 788Q197 788 181 803Z" />
<glyph unicode="&#xd0;" glyph-name="Eth" horiz-adv-x="764" d="M518 705T612 613T706 353Q706 185 612 93T347 0H151Q127 0 114 13T100 50V317H47Q25 317 13 327T0 357Q0 376 12 387T47 398H100V655Q100 678 113 691T151 705H347Q518 705 612 613ZM601 86T601
353Q601 619 341 619H203V398H358Q379 398 391 387T403 357Q403 338 391 328T358 317H203V86H341Q601 86 601 353Z" />
<glyph unicode="&#xd1;" glyph-name="Ntilde" horiz-adv-x="743" d="M634 710T647 696T661 658V47Q661 24 647 10T611 -5Q585 -5 571 15L179 532V47Q179 24 166 10T130 -5Q108 -5 95 9T82 47V658Q82 681 96 695T132 710Q158 710 172 690L564 172V658Q564 681 577
695T612 710Q634 710 647 696ZM426 788T408 793T364 809Q321 826 300 826Q285 826 276 820T259 803Q257 801 253 797T244 790T234 787Q223 787 216 795T209 815Q209 833 220 852T252 885T299 898Q316 898 334 893T378 877Q421 860 442 860Q457 860 466 866T483
882Q491 891 496 894T508 898Q519 898 526 891T533 871Q533 853 522 834T490 801T443 788Q426 788 408 793Z" />
<glyph unicode="&#xd2;" glyph-name="Ograve" horiz-adv-x="771" d="M285 -8T212 36T98 161T58 352Q58 463 97 544T211 669T385 713Q486 713 560 670T673 545T713 353Q713 243 674 162T560 36T385 -8Q285 -8 212 36ZM491 76T550 148T609 353Q609 486 551 557T385
629Q280 629 222 558T163 353Q163 220 221 148T385 76Q491 76 550 148ZM255 841Q227 858 227 882Q227 899 239 911T268 923Q288 923 307 904L402 803Q411 794 411 784Q411 774 404 767T385 760Q377 760 370 764L255 841Z" />
<glyph unicode="&#xd3;" glyph-name="Oacute" horiz-adv-x="771" d="M285 -8T212 36T98 161T58 352Q58 463 97 544T211 669T385 713Q486 713 560 670T673 545T713 353Q713 243 674 162T560 36T385 -8Q285 -8 212 36ZM491 76T550 148T609 353Q609 486 551 557T385
629Q280 629 222 558T163 353Q163 220 221 148T385 76Q491 76 550 148ZM393 760T385 760Q374 760 367 767T359 784Q359 794 368 803L463 904Q482 923 502 923Q519 923 531 911T543 882Q543 858 515 841L400 764Q393 760 385 760Z" />
<glyph unicode="&#xd4;" glyph-name="Ocircumflex" horiz-adv-x="771" d="M285 -8T212 36T98 161T58 352Q58 463 97 544T211 669T385 713Q486 713 560 670T673 545T713 353Q713 243 674 162T560 36T385 -8Q285 -8 212 36ZM491 76T550 148T609 353Q609 486 551
557T385 629Q280 629 222 558T163 353Q163 220 221 148T385 76Q491 76 550 148ZM293 760T278 760Q264 760 255 770T245 793Q245 807 258 820L344 905Q362 922 385 922Q408 922 426 905L512 820Q525 807 525 793Q525 780 515 770T491 760Q477 760 465 772L385 858L305
772Q293 760 278 760Z" />
<glyph unicode="&#xd5;" glyph-name="Otilde" horiz-adv-x="771" d="M285 -8T212 36T98 161T58 352Q58 463 97 544T211 669T385 713Q486 713 560 670T673 545T713 353Q713 243 674 162T560 36T385 -8Q285 -8 212 36ZM491 76T550 148T609 353Q609 486 551 557T385
629Q280 629 222 558T163 353Q163 220 221 148T385 76Q491 76 550 148ZM440 788T422 793T378 809Q335 826 314 826Q299 826 290 820T273 803Q271 801 267 797T258 790T248 787Q237 787 230 795T223 815Q223 833 234 852T266 885T313 898Q330 898 348 893T392 877Q435
860 456 860Q471 860 480 866T497 882Q505 891 510 894T522 898Q533 898 540 891T547 871Q547 853 536 834T504 801T457 788Q440 788 422 793Z" />
<glyph unicode="&#xd6;" glyph-name="Odieresis" horiz-adv-x="771" d="M285 -8T212 36T98 161T58 352Q58 463 97 544T211 669T385 713Q486 713 560 670T673 545T713 353Q713 243 674 162T560 36T385 -8Q285 -8 212 36ZM491 76T550 148T609 353Q609 486 551 557T385
629Q280 629 222 558T163 353Q163 220 221 148T385 76Q491 76 550 148ZM272 788T256 803T240 842Q240 867 256 882T297 897Q321 897 337 882T354 842Q354 818 338 803T297 788Q272 788 256 803ZM449 788T433 803T417 842Q417 866 433 881T473 897Q498 897 514 882T530
842Q530 818 514 803T473 788Q449 788 433 803Z" />
<glyph unicode="&#xd7;" glyph-name="multiply" horiz-adv-x="600" d="M507 130Q518 119 518 104Q518 88 506 76Q496 66 483 66Q467 66 454 79L300 233L146 79Q134 67 118 67Q102 67 91 78Q81 88 81 102Q81 118 93 130L248 285L93 440Q82 453 82 467Q82 483 93
494Q103 504 118 504Q134 504 146 492L300 338L454 492Q465 503 482 503Q499 503 509 492Q519 482 519 468Q519 452 507 440L352 285L507 130Z" />
<glyph unicode="&#xd8;" glyph-name="Oslash" horiz-adv-x="771" d="M655 594T684 521T713 353Q713 243 674 162T560 36T385 -8Q302 -8 239 22L216 -18Q200 -44 176 -44Q161 -44 150 -34T139 -6Q139 8 147 21L172 64Q117 111 88 184T58 352Q58 463 97 544T211
669T385 713Q469 713 532 683L556 724Q570 749 594 749Q610 749 621 738T633 710Q633 696 625 684L600 641Q655 594 684 521ZM163 220T221 148L488 607Q444 629 385 629Q280 629 222 558T163 353Q163 220 221 148ZM491 76T550 148T609 353Q609 485 551 557L284
98Q327 76 385 76Q491 76 550 148Z" />
<glyph unicode="&#xd9;" glyph-name="Ugrave" horiz-adv-x="728" d="M223 -8T150 65T77 280V658Q77 682 91 696T128 710Q151 710 165 696T179 658V273Q179 176 225 126T364 76Q455 76 502 126T549 273V658Q549 681 563 695T600 710Q623 710 637 696T651 658V280Q651
139 578 66T364 -8Q223 -8 150 65ZM234 841Q206 858 206 882Q206 899 218 911T247 923Q267 923 286 904L381 803Q390 794 390 784Q390 774 383 767T364 760Q356 760 349 764L234 841Z" />
<glyph unicode="&#xda;" glyph-name="Uacute" horiz-adv-x="728" d="M223 -8T150 65T77 280V658Q77 682 91 696T128 710Q151 710 165 696T179 658V273Q179 176 225 126T364 76Q455 76 502 126T549 273V658Q549 681 563 695T600 710Q623 710 637 696T651 658V280Q651
139 578 66T364 -8Q223 -8 150 65ZM372 760T364 760Q353 760 346 767T338 784Q338 794 347 803L442 904Q461 923 481 923Q498 923 510 911T522 882Q522 858 494 841L379 764Q372 760 364 760Z" />
<glyph unicode="&#xdb;" glyph-name="Ucircumflex" horiz-adv-x="728" d="M223 -8T150 65T77 280V658Q77 682 91 696T128 710Q151 710 165 696T179 658V273Q179 176 225 126T364 76Q455 76 502 126T549 273V658Q549 681 563 695T600 710Q623 710 637 696T651 658V280Q651
139 578 66T364 -8Q223 -8 150 65ZM272 760T257 760Q243 760 234 770T224 793Q224 807 237 820L323 905Q341 922 364 922Q387 922 405 905L491 820Q504 807 504 793Q504 780 494 770T470 760Q456 760 444 772L364 858L284 772Q272 760 257 760Z" />
<glyph unicode="&#xdc;" glyph-name="Udieresis" horiz-adv-x="728" d="M223 -8T150 65T77 280V658Q77 682 91 696T128 710Q151 710 165 696T179 658V273Q179 176 225 126T364 76Q455 76 502 126T549 273V658Q549 681 563 695T600 710Q623 710 637 696T651 658V280Q651
139 578 66T364 -8Q223 -8 150 65ZM251 788T235 803T219 842Q219 867 235 882T276 897Q300 897 316 882T333 842Q333 818 317 803T276 788Q251 788 235 803ZM428 788T412 803T396 842Q396 866 412 881T452 897Q477 897 493 882T509 842Q509 818 493 803T452 788Q428
788 412 803Z" />
<glyph unicode="&#xdd;" glyph-name="Yacute" horiz-adv-x="611" d="M537 710T558 710Q576 710 590 696T605 662Q605 644 593 631L357 337V47Q357 22 343 9T305 -5Q282 -5 268 8T254 47V337L18 631Q6 644 6 663Q6 682 20 696T53 710Q73 710 88 692L306 418L523
692Q537 710 558 710ZM313 760T305 760Q294 760 287 767T279 784Q279 794 288 803L383 904Q402 923 422 923Q439 923 451 911T463 882Q463 858 435 841L320 764Q313 760 305 760Z" />
<glyph unicode="&#xde;" glyph-name="Thorn" horiz-adv-x="652" d="M489 554T549 503T610 359Q610 267 549 215T380 163H184V47Q184 23 170 9T133 -5Q110 -5 96 9T82 47V658Q82 682 96 696T133 710Q156 710 170 696T184 658V554H380Q489 554 549 503ZM439 245T475
273T511 359Q511 417 476 444T366 471H184V245H366Q439 245 475 273Z" />
<glyph unicode="&#xdf;" glyph-name="germandbls" horiz-adv-x="634" d="M376 -7T336 4T264 35Q246 46 239 58T231 85Q231 101 240 112T263 123Q272 123 283 118T305 106Q333 90 358 81T419 71Q463 71 487 88T511 136Q511 166 486 182T409 216Q363 232 335 246T286
286T266 354Q266 391 284 417T337 478Q366 505 380 525T395 569Q395 600 373 617T308 634Q243 634 207 594T171 481V43Q171 21 158 8T121 -5Q98 -5 84 8T70 43V467Q70 583 133 647T311 711Q395 711 442 675T490 575Q490 534 470 505T414 443Q387 417 375 401T362
365Q362 337 385 322T460 288Q505 273 534 258T585 214T606 142Q606 75 554 34T417 -7Q376 -7 336 4Z" />
<glyph unicode="&#xe0;" glyph-name="agrave" horiz-adv-x="535" d="M372 500T419 451T467 302V43Q467 20 454 8T418 -5Q396 -5 383 8T370 43V80Q351 38 314 16T226 -7Q178 -7 138 12T76 67T53 145Q53 198 80 228T171 272T346 285H369V314Q369 370 346 395T272
420Q237 420 206 411T138 385Q111 370 100 370Q85 370 76 381T66 409Q66 424 74 435T102 458Q137 477 184 488T275 500Q372 500 419 451ZM299 68T334 105T369 202V228H351Q273 228 231 221T171 198T153 150Q153 114 179 91T244 68Q299 68 334 105ZM119 673Q95 693
95 716Q95 734 108 746T140 759Q167 759 186 733L294 592Q301 584 301 574Q301 563 293 555T273 547Q262 547 254 554L119 673Z" />
<glyph unicode="&#xe1;" glyph-name="aacute" horiz-adv-x="535" d="M372 500T419 451T467 302V43Q467 20 454 8T418 -5Q396 -5 383 8T370 43V80Q351 38 314 16T226 -7Q178 -7 138 12T76 67T53 145Q53 198 80 228T171 272T346 285H369V314Q369 370 346 395T272
420Q237 420 206 411T138 385Q111 370 100 370Q85 370 76 381T66 409Q66 424 74 435T102 458Q137 477 184 488T275 500Q372 500 419 451ZM299 68T334 105T369 202V228H351Q273 228 231 221T171 198T153 150Q153 114 179 91T244 68Q299 68 334 105ZM288 547T277
547Q266 547 258 555T249 574Q249 584 256 592L364 733Q384 760 410 760Q429 760 442 747T455 716Q455 693 431 673L296 554Q288 547 277 547Z" />
<glyph unicode="&#xe2;" glyph-name="acircumflex" horiz-adv-x="535" d="M372 500T419 451T467 302V43Q467 20 454 8T418 -5Q396 -5 383 8T370 43V80Q351 38 314 16T226 -7Q178 -7 138 12T76 67T53 145Q53 198 80 228T171 272T346 285H369V314Q369 370 346 395T272
420Q237 420 206 411T138 385Q111 370 100 370Q85 370 76 381T66 409Q66 424 74 435T102 458Q137 477 184 488T275 500Q372 500 419 451ZM299 68T334 105T369 202V228H351Q273 228 231 221T171 198T153 150Q153 114 179 91T244 68Q299 68 334 105ZM188 548T168
548Q154 548 144 558T133 582Q133 593 141 604L231 733Q241 746 251 752T275 759Q289 759 299 753T319 733L409 604Q417 593 417 582Q417 568 407 558T382 548Q363 548 351 566L275 686L199 566Q188 548 168 548Z" />
<glyph unicode="&#xe3;" glyph-name="atilde" horiz-adv-x="535" d="M372 500T419 451T467 302V43Q467 20 454 8T418 -5Q396 -5 383 8T370 43V80Q351 38 314 16T226 -7Q178 -7 138 12T76 67T53 145Q53 198 80 228T171 272T346 285H369V314Q369 370 346 395T272
420Q237 420 206 411T138 385Q111 370 100 370Q85 370 76 381T66 409Q66 424 74 435T102 458Q137 477 184 488T275 500Q372 500 419 451ZM299 68T334 105T369 202V228H351Q273 228 231 221T171 198T153 150Q153 114 179 91T244 68Q299 68 334 105ZM328 588T310
596T267 621Q247 634 234 640T208 647Q191 647 182 639T163 615Q156 604 151 598T137 592Q126 592 120 600T113 621Q113 640 124 663T156 703T203 720Q222 720 240 711T283 686Q308 671 319 666T342 660Q359 660 368 668T387 692Q394 703 399 709T413 715Q424 715
430 707T437 686Q437 668 426 645T394 605T347 588Q328 588 310 596Z" />
<glyph unicode="&#xe4;" glyph-name="adieresis" horiz-adv-x="535" d="M372 500T419 451T467 302V43Q467 20 454 8T418 -5Q396 -5 383 8T370 43V80Q351 38 314 16T226 -7Q178 -7 138 12T76 67T53 145Q53 198 80 228T171 272T346 285H369V314Q369 370 346 395T272
420Q237 420 206 411T138 385Q111 370 100 370Q85 370 76 381T66 409Q66 424 74 435T102 458Q137 477 184 488T275 500Q372 500 419 451ZM299 68T334 105T369 202V228H351Q273 228 231 221T171 198T153 150Q153 114 179 91T244 68Q299 68 334 105ZM162 599T146
614T130 654Q130 678 146 693T187 708Q211 708 227 693T244 654Q244 629 228 614T187 599Q162 599 146 614ZM339 599T323 614T307 654Q307 678 323 693T363 708Q388 708 404 693T420 654Q420 629 404 614T363 599Q339 599 323 614Z" />
<glyph unicode="&#xe5;" glyph-name="aring" horiz-adv-x="535" d="M372 500T419 451T467 302V43Q467 20 454 8T418 -5Q396 -5 383 8T370 43V80Q351 38 314 16T226 -7Q178 -7 138 12T76 67T53 145Q53 198 80 228T171 272T346 285H369V314Q369 370 346 395T272
420Q237 420 206 411T138 385Q111 370 100 370Q85 370 76 381T66 409Q66 424 74 435T102 458Q137 477 184 488T275 500Q372 500 419 451ZM299 68T334 105T369 202V228H351Q273 228 231 221T171 198T153 150Q153 114 179 91T244 68Q299 68 334 105ZM232 553T202
582T171 654Q171 697 201 726T275 756Q318 756 348 727T379 654Q379 612 349 583T275 553Q232 553 202 582ZM295 605T308 619T322 654Q322 674 309 688T275 703Q255 703 242 689T228 654Q228 634 241 620T275 605Q295 605 308 619Z" />
<glyph unicode="&#xe6;" glyph-name="ae" horiz-adv-x="848" d="M786 123T795 112T804 84Q804 54 768 35Q735 15 694 4T615 -7Q543 -7 492 22T412 108Q392 53 347 23T237 -7Q185 -7 143 12T77 66T53 145Q53 198 81 228T172 272T347 285H371V312Q371 369 348 394T273
420Q228 420 198 410T135 384Q109 370 98 370Q84 370 75 381T66 409Q66 437 102 458Q177 500 274 500Q394 500 436 421Q466 459 509 479T604 500Q665 500 711 471T782 390T808 267Q808 227 772 227H469Q480 72 616 72Q651 72 677 81T733 107Q744 114 754 118T772
123Q786 123 795 112ZM545 426T511 389T469 285H720Q718 353 688 389T602 426Q545 426 511 389ZM301 68T336 106T371 204V228H352Q274 228 232 221T171 198T153 150Q153 113 180 91T249 68Q301 68 336 106Z" />
<glyph unicode="&#xe7;" glyph-name="ccedilla" horiz-adv-x="483" d="M445 124T454 113T463 84Q463 70 456 59T430 35Q404 18 370 7T301 -6L296 -44Q310 -41 321 -41Q352 -41 373 -59T395 -110Q395 -147 363 -170T272 -194Q233 -194 203 -183Q185 -176 185 -158Q185
-146 193 -138T216 -134Q246 -142 272 -142Q298 -142 312 -134T326 -110Q326 -98 319 -92T297 -85Q287 -85 270 -89T249 -93Q241 -93 235 -88T229 -73L237 -4Q147 10 95 76T42 244Q42 320 72 378T158 468T284 500Q322 500 360 489T429 459Q461 437 461 408Q461
391 452 380T429 368Q420 368 411 372T388 386Q363 402 342 410T290 419Q222 419 185 373T147 245Q147 163 184 119T289 74Q319 74 342 83T389 107Q400 114 411 119T431 124Q445 124 454 113Z" />
<glyph unicode="&#xe8;" glyph-name="egrave" horiz-adv-x="529" d="M466 123T475 112T484 84Q484 55 448 35Q413 15 372 4T292 -7Q176 -7 109 60T42 245Q42 320 71 378T154 468T276 500Q374 500 431 437T488 267Q488 227 452 227H143Q153 72 292 72Q329 72 356
82T413 108Q416 110 429 116T452 123Q466 123 475 112ZM220 426T185 389T143 285H401Q398 353 367 389T278 426Q220 426 185 389ZM120 673Q96 693 96 716Q96 734 109 746T141 759Q168 759 187 733L295 592Q302 584 302 574Q302 563 294 555T274 547Q263 547 255
554L120 673Z" />
<glyph unicode="&#xe9;" glyph-name="eacute" horiz-adv-x="529" d="M466 123T475 112T484 84Q484 55 448 35Q413 15 372 4T292 -7Q176 -7 109 60T42 245Q42 320 71 378T154 468T276 500Q374 500 431 437T488 267Q488 227 452 227H143Q153 72 292 72Q329 72 356
82T413 108Q416 110 429 116T452 123Q466 123 475 112ZM220 426T185 389T143 285H401Q398 353 367 389T278 426Q220 426 185 389ZM289 547T278 547Q267 547 259 555T250 574Q250 584 257 592L365 733Q385 760 411 760Q430 760 443 747T456 716Q456 693 432 673L297
554Q289 547 278 547Z" />
<glyph unicode="&#xea;" glyph-name="ecircumflex" horiz-adv-x="529" d="M466 123T475 112T484 84Q484 55 448 35Q413 15 372 4T292 -7Q176 -7 109 60T42 245Q42 320 71 378T154 468T276 500Q374 500 431 437T488 267Q488 227 452 227H143Q153 72 292 72Q329
72 356 82T413 108Q416 110 429 116T452 123Q466 123 475 112ZM220 426T185 389T143 285H401Q398 353 367 389T278 426Q220 426 185 389ZM189 548T169 548Q155 548 145 558T134 582Q134 593 142 604L232 733Q242 746 252 752T276 759Q290 759 300 753T320 733L410
604Q418 593 418 582Q418 568 408 558T383 548Q364 548 352 566L276 686L200 566Q189 548 169 548Z" />
<glyph unicode="&#xeb;" glyph-name="edieresis" horiz-adv-x="529" d="M466 123T475 112T484 84Q484 55 448 35Q413 15 372 4T292 -7Q176 -7 109 60T42 245Q42 320 71 378T154 468T276 500Q374 500 431 437T488 267Q488 227 452 227H143Q153 72 292 72Q329 72
356 82T413 108Q416 110 429 116T452 123Q466 123 475 112ZM220 426T185 389T143 285H401Q398 353 367 389T278 426Q220 426 185 389ZM163 599T147 614T131 654Q131 678 147 693T188 708Q212 708 228 693T245 654Q245 629 229 614T188 599Q163 599 147 614ZM340
599T324 614T308 654Q308 678 324 693T364 708Q389 708 405 693T421 654Q421 629 405 614T364 599Q340 599 324 614Z" />
<glyph unicode="&#xec;" glyph-name="igrave" horiz-adv-x="242" d="M99 -5T85 7T70 43V449Q70 473 84 485T121 498Q143 498 157 486T171 449V43Q171 19 157 7T121 -5Q99 -5 85 7ZM-35 673Q-59 693 -59 716Q-59 734 -46 746T-14 759Q13 759 32 733L140 592Q147
584 147 574Q147 563 139 555T119 547Q108 547 100 554L-35 673Z" />
<glyph unicode="&#xed;" glyph-name="iacute" horiz-adv-x="242" d="M99 -5T85 7T70 43V449Q70 473 84 485T121 498Q143 498 157 486T171 449V43Q171 19 157 7T121 -5Q99 -5 85 7ZM134 547T123 547Q112 547 104 555T95 574Q95 584 102 592L210 733Q230 760 256
760Q275 760 288 747T301 716Q301 693 277 673L142 554Q134 547 123 547Z" />
<glyph unicode="&#xee;" glyph-name="icircumflex" horiz-adv-x="242" d="M99 -5T85 7T70 43V449Q70 473 84 485T121 498Q143 498 157 486T171 449V43Q171 19 157 7T121 -5Q99 -5 85 7ZM34 548T14 548Q0 548 -10 558T-21 582Q-21 593 -13 604L77 733Q87 746 97
752T121 759Q135 759 145 753T165 733L255 604Q263 593 263 582Q263 568 253 558T228 548Q209 548 197 566L121 686L45 566Q34 548 14 548Z" />
<glyph unicode="&#xef;" glyph-name="idieresis" horiz-adv-x="242" d="M99 -5T85 7T70 43V449Q70 473 84 485T121 498Q143 498 157 486T171 449V43Q171 19 157 7T121 -5Q99 -5 85 7ZM8 599T-8 614T-24 654Q-24 678 -8 693T33 708Q57 708 73 693T90 654Q90 629
74 614T33 599Q8 599 -8 614ZM185 599T169 614T153 654Q153 678 169 693T209 708Q234 708 250 693T266 654Q266 629 250 614T209 599Q185 599 169 614Z" />
<glyph unicode="&#xf0;" glyph-name="eth" horiz-adv-x="569" d="M470 512T498 440T527 284Q527 143 463 68T279 -7Q209 -7 155 21T72 102T42 224Q42 292 71 344T152 426T272 455Q366 455 418 398Q394 476 330 540L200 496Q192 494 188 494Q175 494 167 503T158
525Q158 535 164 542T182 554L275 585Q232 614 189 632Q173 638 166 649T158 672Q158 688 170 699T202 710Q217 710 228 705Q310 673 373 617L480 653Q490 655 493 655Q506 655 514 647T522 626Q522 616 516 608T498 596L420 570Q470 512 498 440ZM347 73T383 113T420
225Q420 297 384 336T282 376Q216 376 180 337T144 224Q144 151 179 112T282 73Q347 73 383 113Z" />
<glyph unicode="&#xf1;" glyph-name="ntilde" horiz-adv-x="576" d="M508 500T508 303V43Q508 20 495 8T457 -5Q434 -5 421 8T407 43V298Q407 360 383 389T306 418Q245 418 208 380T171 278V43Q171 21 158 8T121 -5Q98 -5 84 8T70 43V450Q70 471 84 484T121 498Q143
498 156 485T169 451V410Q193 454 236 477T333 500Q508 500 508 303ZM342 588T324 596T281 621Q261 634 248 640T222 647Q205 647 196 639T177 615Q170 604 165 598T151 592Q140 592 134 600T127 621Q127 640 138 663T170 703T217 720Q236 720 254 711T297 686Q322
671 333 666T356 660Q373 660 382 668T401 692Q408 703 413 709T427 715Q438 715 444 707T451 686Q451 668 440 645T408 605T361 588Q342 588 324 596Z" />
<glyph unicode="&#xf2;" glyph-name="ograve" horiz-adv-x="564" d="M210 -7T156 24T72 112T42 246Q42 323 71 380T155 469T282 500Q354 500 408 469T492 381T522 246Q522 170 493 113T409 24T282 -7Q210 -7 156 24ZM349 73T384 117T420 246Q420 330 384 374T282
419Q216 419 180 375T144 246Q144 161 179 117T282 73Q349 73 384 117ZM126 673Q102 693 102 716Q102 734 115 746T147 759Q174 759 193 733L301 592Q308 584 308 574Q308 563 300 555T280 547Q269 547 261 554L126 673Z" />
<glyph unicode="&#xf3;" glyph-name="oacute" horiz-adv-x="564" d="M210 -7T156 24T72 112T42 246Q42 323 71 380T155 469T282 500Q354 500 408 469T492 381T522 246Q522 170 493 113T409 24T282 -7Q210 -7 156 24ZM349 73T384 117T420 246Q420 330 384 374T282
419Q216 419 180 375T144 246Q144 161 179 117T282 73Q349 73 384 117ZM295 547T284 547Q273 547 265 555T256 574Q256 584 263 592L371 733Q391 760 417 760Q436 760 449 747T462 716Q462 693 438 673L303 554Q295 547 284 547Z" />
<glyph unicode="&#xf4;" glyph-name="ocircumflex" horiz-adv-x="564" d="M210 -7T156 24T72 112T42 246Q42 323 71 380T155 469T282 500Q354 500 408 469T492 381T522 246Q522 170 493 113T409 24T282 -7Q210 -7 156 24ZM349 73T384 117T420 246Q420 330 384
374T282 419Q216 419 180 375T144 246Q144 161 179 117T282 73Q349 73 384 117ZM195 548T175 548Q161 548 151 558T140 582Q140 593 148 604L238 733Q248 746 258 752T282 759Q296 759 306 753T326 733L416 604Q424 593 424 582Q424 568 414 558T389 548Q370 548
358 566L282 686L206 566Q195 548 175 548Z" />
<glyph unicode="&#xf5;" glyph-name="otilde" horiz-adv-x="564" d="M210 -7T156 24T72 112T42 246Q42 323 71 380T155 469T282 500Q354 500 408 469T492 381T522 246Q522 170 493 113T409 24T282 -7Q210 -7 156 24ZM349 73T384 117T420 246Q420 330 384 374T282
419Q216 419 180 375T144 246Q144 161 179 117T282 73Q349 73 384 117ZM335 588T317 596T274 621Q254 634 241 640T215 647Q198 647 189 639T170 615Q163 604 158 598T144 592Q133 592 127 600T120 621Q120 640 131 663T163 703T210 720Q229 720 247 711T290 686Q315
671 326 666T349 660Q366 660 375 668T394 692Q401 703 406 709T420 715Q431 715 437 707T444 686Q444 668 433 645T401 605T354 588Q335 588 317 596Z" />
<glyph unicode="&#xf6;" glyph-name="odieresis" horiz-adv-x="564" d="M210 -7T156 24T72 112T42 246Q42 323 71 380T155 469T282 500Q354 500 408 469T492 381T522 246Q522 170 493 113T409 24T282 -7Q210 -7 156 24ZM349 73T384 117T420 246Q420 330 384 374T282
419Q216 419 180 375T144 246Q144 161 179 117T282 73Q349 73 384 117ZM169 599T153 614T137 654Q137 678 153 693T194 708Q218 708 234 693T251 654Q251 629 235 614T194 599Q169 599 153 614ZM346 599T330 614T314 654Q314 678 330 693T370 708Q395 708 411 693T427
654Q427 629 411 614T370 599Q346 599 330 614Z" />
<glyph unicode="&#xf7;" glyph-name="divide" horiz-adv-x="600" d="M278 432T264 447T249 485Q249 507 263 522T300 537Q322 537 336 522T351 485Q351 462 337 447T300 432Q278 432 264 447ZM84 248T73 259T62 286Q62 301 73 311T100 322H512Q528 322 539 311T550
284Q550 269 539 259T512 248H100Q84 248 73 259ZM278 34T264 49T249 86Q249 108 263 123T300 138Q322 138 336 123T351 86Q351 64 337 49T300 34Q278 34 264 49Z" />
<glyph unicode="&#xf8;" glyph-name="oslash" horiz-adv-x="564" d="M478 416T500 364T522 246Q522 170 493 113T409 24T282 -7Q227 -7 183 11L162 -24Q152 -41 133 -41Q120 -41 111 -33T101 -12Q101 -2 106 6L128 43Q86 76 64 128T42 246Q42 323 71 380T155 469T282
500Q339 500 383 481L403 516Q413 533 432 533Q445 533 454 525T464 503Q464 494 459 486L437 449Q478 416 500 364ZM143 168T174 123L341 409Q314 420 282 420Q215 420 179 375T143 246Q143 168 174 123ZM350 73T385 117T421 246Q421 323 390 368L224 83Q248 73
282 73Q350 73 385 117Z" />
<glyph unicode="&#xf9;" glyph-name="ugrave" horiz-adv-x="569" d="M471 498T484 485T498 449V42Q498 21 484 8T447 -5Q426 -5 413 7T400 41V79Q377 37 337 15T246 -7Q68 -7 68 189V449Q68 472 81 485T119 498Q142 498 155 485T169 449V190Q169 131 193 103T267
75Q326 75 361 113T397 214V449Q397 471 411 484T448 498Q471 498 484 485ZM128 673Q104 693 104 716Q104 734 117 746T149 759Q176 759 195 733L303 592Q310 584 310 574Q310 563 302 555T282 547Q271 547 263 554L128 673Z" />
<glyph unicode="&#xfa;" glyph-name="uacute" horiz-adv-x="569" d="M471 498T484 485T498 449V42Q498 21 484 8T447 -5Q426 -5 413 7T400 41V79Q377 37 337 15T246 -7Q68 -7 68 189V449Q68 472 81 485T119 498Q142 498 155 485T169 449V190Q169 131 193 103T267
75Q326 75 361 113T397 214V449Q397 471 411 484T448 498Q471 498 484 485ZM297 547T286 547Q275 547 267 555T258 574Q258 584 265 592L373 733Q393 760 419 760Q438 760 451 747T464 716Q464 693 440 673L305 554Q297 547 286 547Z" />
<glyph unicode="&#xfb;" glyph-name="ucircumflex" horiz-adv-x="569" d="M471 498T484 485T498 449V42Q498 21 484 8T447 -5Q426 -5 413 7T400 41V79Q377 37 337 15T246 -7Q68 -7 68 189V449Q68 472 81 485T119 498Q142 498 155 485T169 449V190Q169 131 193
103T267 75Q326 75 361 113T397 214V449Q397 471 411 484T448 498Q471 498 484 485ZM197 548T177 548Q163 548 153 558T142 582Q142 593 150 604L240 733Q250 746 260 752T284 759Q298 759 308 753T328 733L418 604Q426 593 426 582Q426 568 416 558T391 548Q372
548 360 566L284 686L208 566Q197 548 177 548Z" />
<glyph unicode="&#xfc;" glyph-name="udieresis" horiz-adv-x="569" d="M471 498T484 485T498 449V42Q498 21 484 8T447 -5Q426 -5 413 7T400 41V79Q377 37 337 15T246 -7Q68 -7 68 189V449Q68 472 81 485T119 498Q142 498 155 485T169 449V190Q169 131 193 103T267
75Q326 75 361 113T397 214V449Q397 471 411 484T448 498Q471 498 484 485ZM171 599T155 614T139 654Q139 678 155 693T196 708Q220 708 236 693T253 654Q253 629 237 614T196 599Q171 599 155 614ZM348 599T332 614T316 654Q316 678 332 693T372 708Q397 708 413
693T429 654Q429 629 413 614T372 599Q348 599 332 614Z" />
<glyph unicode="&#xfd;" glyph-name="yacute" horiz-adv-x="520" d="M423 483T434 490T459 497Q478 497 492 484T507 453Q507 443 503 434L225 -156Q219 -170 208 -177T183 -185Q165 -185 151 -173T136 -143Q136 -135 141 -123L210 24L17 434Q13 442 13 452Q13
471 29 484T65 497Q95 497 108 469L263 125L417 468Q423 483 434 490ZM273 547T262 547Q251 547 243 555T234 574Q234 584 241 592L349 733Q369 760 395 760Q414 760 427 747T440 716Q440 693 416 673L281 554Q273 547 262 547Z" />
<glyph unicode="&#xfe;" glyph-name="thorn" horiz-adv-x="591" d="M395 500T444 468T521 378T549 244Q549 168 521 111T444 24T332 -7Q277 -7 235 16T171 84V-139Q171 -160 158 -172T122 -185Q99 -185 85 -172T70 -137V662Q70 684 84 697T122 710Q144 710 157
698T171 664V408Q193 452 235 476T332 500Q395 500 444 468ZM374 73T410 118T446 244Q446 326 410 372T308 419Q242 419 207 374T171 246Q171 163 206 118T308 73Q374 73 410 118Z" />
<glyph unicode="&#xff;" glyph-name="ydieresis" horiz-adv-x="520" d="M423 483T434 490T459 497Q478 497 492 484T507 453Q507 443 503 434L225 -156Q219 -170 208 -177T183 -185Q165 -185 151 -173T136 -143Q136 -135 141 -123L210 24L17 434Q13 442 13 452Q13
471 29 484T65 497Q95 497 108 469L263 125L417 468Q423 483 434 490ZM147 599T131 614T115 654Q115 678 131 693T172 708Q196 708 212 693T229 654Q229 629 213 614T172 599Q147 599 131 614ZM324 599T308 614T292 654Q292 678 308 693T348 708Q373 708 389 693T405
654Q405 629 389 614T348 599Q324 599 308 614Z" />
<glyph unicode="&#x2013;" glyph-name="endash" horiz-adv-x="500" d="M22 235T11 244T0 266Q0 280 11 289T40 298H460Q478 298 489 289T500 266Q500 253 489 244T460 235H40Q22 235 11 244Z" />
<glyph unicode="&#x2014;" glyph-name="emdash" horiz-adv-x="1000" d="M22 235T11 244T0 266Q0 280 11 289T40 298H960Q978 298 989 289T1000 266Q1000 253 989 244T960 235H40Q22 235 11 244Z" />
<glyph unicode="&#x2021;" glyph-name="quoteleft" horiz-adv-x="238" d="M150 589T166 572T182 529Q182 501 165 483T121 464Q91 464 73 486T55 552Q55 638 113 699Q125 711 138 711Q151 711 160 703T170 681Q170 671 161 660Q133 631 125 591Q150 589 166 572Z" />
<glyph unicode="&#x2019;" glyph-name="quoteright" horiz-adv-x="238" d="M147 710T164 688T182 623Q182 538 125 476Q113 464 99 464Q86 464 77 472T68 493Q68 504 77 514Q105 543 113 583Q88 585 72 602T55 645Q55 673 73 691T117 710Q147 710 164 688Z" />
<glyph unicode="&#x201a;" glyph-name="quotesinglbase" horiz-adv-x="238" d="M147 124T164 102T182 37Q182 -48 125 -110Q113 -122 99 -122Q86 -122 77 -114T68 -93Q68 -83 77 -72Q105 -43 113 -3Q88 -1 72 16T55 59Q55 87 73 105T117 124Q147 124 164 102Z" />
<glyph unicode="&#x201c;" glyph-name="quotedblleft" horiz-adv-x="415" d="M150 589T166 572T182 529Q182 501 165 483T121 464Q91 464 73 486T55 552Q55 638 113 699Q125 711 138 711Q151 711 160 703T170 681Q170 671 161 660Q133 631 125 591Q150 589 166
572ZM328 589T344 572T360 529Q360 501 343 483T299 464Q269 464 251 486T233 552Q233 638 291 699Q303 711 316 711Q329 711 338 703T348 681Q348 671 339 660Q311 631 303 591Q328 589 344 572Z" />
<glyph unicode="&#x201d;" glyph-name="quotedblright" horiz-adv-x="415" d="M147 710T164 688T182 623Q182 538 125 476Q113 464 99 464Q86 464 77 472T68 493Q68 504 77 514Q105 543 113 583Q88 585 72 602T55 645Q55 673 73 691T117 710Q147 710 164 688ZM325
710T342 688T360 623Q360 538 303 476Q291 464 277 464Q264 464 255 472T246 493Q246 504 255 514Q283 543 291 583Q266 585 250 602T233 645Q233 673 251 691T295 710Q325 710 342 688Z" />
<glyph unicode="&#x201e;" glyph-name="quotedblbase" horiz-adv-x="415" d="M147 124T164 102T182 37Q182 -48 125 -110Q113 -122 99 -122Q86 -122 77 -114T68 -93Q68 -83 77 -72Q105 -43 113 -3Q88 -1 72 16T55 59Q55 87 73 105T117 124Q147 124 164 102ZM325
124T342 102T360 37Q360 -48 303 -110Q291 -122 277 -122Q264 -122 255 -114T246 -93Q246 -83 255 -72Q283 -43 291 -3Q266 -1 250 16T233 59Q233 87 251 105T295 124Q325 124 342 102Z" />
<glyph unicode="&#x2022;" glyph-name="bullet" horiz-adv-x="524" d="M214 88T172 111T106 175T81 265Q81 311 104 352T169 418T262 443Q310 443 351 420T418 356T443 265Q443 217 419 177T353 112T262 88Q214 88 172 111Z" />
<glyph unicode="&#x2039;" glyph-name="guilsinglleft" horiz-adv-x="272" d="M64 235Q54 253 54 266Q54 279 64 296L143 427Q157 450 181 450Q196 450 208 440T220 414Q220 406 215 394L152 265L215 137Q220 125 220 117Q220 102 209 92T182 82Q158 82 144 104L64 235Z" />
<glyph unicode="&#x203a;" glyph-name="guilsinglright" horiz-adv-x="269" d="M117 82T91 82Q76 82 65 92T53 117Q53 128 58 137L121 265L58 394Q53 403 53 415Q53 430 64 440T91 450Q115 450 129 427L205 296Q215 282 215 266Q215 251 205 235L129 104Q117 82 91 82Z" />
</font>
</defs>
</svg>
